PesticideID,CAS,Name,Warning
Pesticide1,50-00-0,formaldehyde,FALSE
Pesticide2,50-14-6,ergocalciferol,FALSE
Pesticide3,50-29-3,DDT,TRUE
Pesticide4,50-31-7,"2,3,6-TBA",FALSE
Pesticide5,50-65-7,niclosamide,FALSE
Pesticide6,50-78-2,aspirin,FALSE
Pesticide7,51-03-6,piperonyl butoxide,FALSE
Pesticide8,51-14-9,sesamex,FALSE
Pesticide9,51-18-3,tretamine,FALSE
Pesticide10,52-24-4,thiotepa,FALSE
Pesticide11,52-46-0,apholate,FALSE
Pesticide12,52-51-7,bronopol,FALSE
Pesticide13,52-68-6,trichlorfon,FALSE
Pesticide14,52-85-7,famphur,FALSE
Pesticide15,54-11-5,nicotine,FALSE
Pesticide16,54-64-8,thiomersal,FALSE
Pesticide17,55-38-9,fenthion,FALSE
Pesticide18,55-68-5,phenylmercury nitrate,FALSE
Pesticide19,55-98-1,busulfan,FALSE
Pesticide20,56-23-5,carbon tetrachloride,FALSE
Pesticide21,56-35-9,tributyltin oxide,FALSE
Pesticide22,56-38-2,parathion,FALSE
Pesticide23,56-72-4,coumaphos,FALSE
Pesticide24,56-75-7,chloramphenicol,FALSE
Pesticide25,57-24-9,strychnine,FALSE
Pesticide26,57-39-6,metepa,FALSE
Pesticide27,57-74-9,chlordane,FALSE
Pesticide28,57-92-1,streptomycin,FALSE
Pesticide29,58-89-9,gamma-HCH,TRUE
Pesticide30,60-51-5,dimethoate,FALSE
Pesticide31,60-57-1,dieldrin,TRUE
Pesticide32,61-31-4,sodium 1-naphthaleneacetate,FALSE
Pesticide33,61-82-5,amitrole,FALSE
Pesticide34,62-38-4,phenylmercury acetate,FALSE
Pesticide35,62-73-7,dichlorvos,FALSE
Pesticide36,62-74-8,sodium fluoroacetate,FALSE
Pesticide37,63-25-2,carbaryl,FALSE
Pesticide38,65-30-5,nicotine sulfate,FALSE
Pesticide39,66-76-2,dicoumarol,FALSE
Pesticide40,66-81-9,cycloheximide,FALSE
Pesticide41,66-97-7,psoralen,FALSE
Pesticide42,67-48-1,choline chloride,FALSE
Pesticide43,67-66-3,chloroform,FALSE
Pesticide44,67-97-0,cholecalciferol,FALSE
Pesticide45,70-30-4,hexachlorophene,FALSE
Pesticide46,70-38-2,dimethrin,FALSE
Pesticide47,70-43-9,barthrin,FALSE
Pesticide48,71-55-6,methylchloroform,FALSE
Pesticide49,72-20-8,endrin,FALSE
Pesticide50,72-43-5,methoxychlor,FALSE
Pesticide51,72-54-8,TDE,FALSE
Pesticide52,72-56-0,ethyl-DDD,FALSE
Pesticide53,74-83-9,methyl bromide,FALSE
Pesticide54,74-85-1,ethylene,FALSE
Pesticide55,74-88-4,methyl iodide,FALSE
Pesticide56,74-90-8,hydrogen cyanide,FALSE
Pesticide57,75-09-2,methylene chloride,FALSE
Pesticide58,75-15-0,carbon disulfide,FALSE
Pesticide59,75-21-8,ethylene oxide,FALSE
Pesticide60,75-60-5,cacodylic acid,FALSE
Pesticide61,75-99-0,dalapon,FALSE
Pesticide62,76-03-9,TCA,FALSE
Pesticide63,76-06-2,chloropicrin,FALSE
Pesticide64,76-22-2,camphor,FALSE
Pesticide65,76-44-8,heptachlor,FALSE
Pesticide66,76-87-9,fentin hydroxide,FALSE
Pesticide67,76-96-0,methiotepa,FALSE
Pesticide68,77-06-5,gibberellic acid,FALSE
Pesticide69,78-34-2,dioxathion,FALSE
Pesticide70,78-48-8,tribufos,FALSE
Pesticide71,78-53-5,amiton,FALSE
Pesticide72,78-57-9,menazon,FALSE
Pesticide73,78-87-5,"1,2-dichloropropane",FALSE
Pesticide74,79-11-8,monochloroacetic acid,FALSE
Pesticide75,79-15-2,bromoacetamide,FALSE
Pesticide76,79-19-6,thiosemicarbazide,FALSE
Pesticide77,79-34-5,tetrachloroethane,FALSE
Pesticide78,79-57-2,oxytetracycline,FALSE
Pesticide79,80-06-8,chlorfenethol,FALSE
Pesticide80,80-12-6,tetramine,FALSE
Pesticide81,80-33-1,chlorfenson,FALSE
Pesticide82,80-38-6,fenson,FALSE
Pesticide83,81-81-2,warfarin,FALSE
Pesticide84,81-82-3,coumachlor,FALSE
Pesticide85,81-84-5,naphthalic anhydride,FALSE
Pesticide86,82-66-6,diphacinone,FALSE
Pesticide87,82-68-8,quintozene,FALSE
Pesticide88,83-26-1,pindone,FALSE
Pesticide89,83-28-3,valone,FALSE
Pesticide90,83-59-0,propyl isome,FALSE
Pesticide91,83-79-4,rotenone,FALSE
Pesticide92,84-65-1,anthraquinone,FALSE
Pesticide93,84-74-2,dibutyl phthalate,FALSE
Pesticide94,85-00-7,diquat dibromide,FALSE
Pesticide95,85-34-7,chlorfenac,FALSE
Pesticide96,86-50-0,azinphos-methyl,FALSE
Pesticide97,86-86-2,naphthaleneacetamide,FALSE
Pesticide98,86-87-3,a-naphthaleneacetic acids,FALSE
Pesticide99,86-88-4,antu,FALSE
Pesticide100,87-17-2,salicylanilide,FALSE
Pesticide101,87-47-8,pyrolan,FALSE
Pesticide102,87-51-4,IAA,FALSE
Pesticide103,87-68-3,hexachlorobutadiene,FALSE
Pesticide104,87-86-5,pentachlorophenol,FALSE
Pesticide105,88-82-4,"2,3,5-triiodobenzoic acid",FALSE
Pesticide106,88-85-7,dinoseb,FALSE
Pesticide107,90-15-3,1-naphthol,FALSE
Pesticide108,90-43-7,2-phenylphenol,FALSE
Pesticide109,91-20-3,naphthalene,FALSE
Pesticide110,91-53-2,ethoxyquin,FALSE
Pesticide111,92-52-4,biphenyl,FALSE
Pesticide112,93-15-2,methyl eugenol,FALSE
Pesticide113,93-65-2,mecoprop,FALSE
Pesticide114,93-71-0,allidochlor,FALSE
Pesticide115,93-72-1,fenoprop,FALSE
Pesticide116,93-75-4,thioquinox,FALSE
Pesticide117,93-76-5,"2,4,5-T",FALSE
Pesticide118,93-78-7,"2,4,5-T-isopropyl",FALSE
Pesticide119,93-79-8,"2,4,5-T-butyl",FALSE
Pesticide120,93-80-1,"2,4,5-TB",FALSE
Pesticide121,94-11-1,"2,4-D-isopropyl",FALSE
Pesticide122,94-74-6,MCPA,FALSE
Pesticide123,94-75-7,"2,4-D",FALSE
Pesticide124,94-80-4,"2,4-D-butyl",FALSE
Pesticide125,94-81-5,MCPB,FALSE
Pesticide126,94-82-6,"2,4-DB",FALSE
Pesticide127,94-83-7,"2,4-DEB",FALSE
Pesticide128,94-84-8,"2,4-DEP",FALSE
Pesticide129,94-96-2,ethohexadiol,FALSE
Pesticide130,95-05-6,sulfiram,FALSE
Pesticide131,95-06-7,sulfallate,FALSE
Pesticide132,95-48-7,cresol,TRUE
Pesticide133,95-50-1,o-dichlorobenzene,FALSE
Pesticide134,96-12-8,DBCP,FALSE
Pesticide135,96-24-2,a-chlorohydrin,FALSE
Pesticide136,97-11-0,cyclethrin,FALSE
Pesticide137,97-16-5,genit,FALSE
Pesticide138,97-17-6,dichlofenthion,FALSE
Pesticide139,97-18-7,bithionol,FALSE
Pesticide140,97-23-4,dichlorophen,FALSE
Pesticide141,97-53-0,eugenol,FALSE
Pesticide142,97-77-8,disulfiram,FALSE
Pesticide143,98-01-1,furfural,FALSE
Pesticide144,99-30-9,dicloran,FALSE
Pesticide145,99-49-0,carvone,FALSE
Pesticide146,100-56-1,phenylmercury chloride,FALSE
Pesticide147,101-05-3,anilazine,FALSE
Pesticide148,101-10-0,cloprop,FALSE
Pesticide149,101-21-3,chlorpropham,FALSE
Pesticide150,101-27-9,barban,FALSE
Pesticide151,101-42-8,fenuron,FALSE
Pesticide152,103-17-3,chlorbenside,FALSE
Pesticide153,103-33-3,azobenzene,FALSE
Pesticide154,104-32-5,propamidine,FALSE
Pesticide155,106-44-5,cresol,TRUE
Pesticide156,106-46-7,p-dichlorobenzene,FALSE
Pesticide157,106-93-4,ethylene dibromide,FALSE
Pesticide158,107-02-8,acrolein,FALSE
Pesticide159,107-06-2,ethylene dichloride,FALSE
Pesticide160,107-13-1,acrylonitrile,FALSE
Pesticide161,107-18-6,allyl alcohol,FALSE
Pesticide162,107-26-6,ethylmercury bromide,FALSE
Pesticide163,107-27-7,ethylmercury chloride,FALSE
Pesticide164,107-49-3,TEPP,FALSE
Pesticide165,108-25-8,proxan,FALSE
Pesticide166,108-35-0,pyrazothion,FALSE
Pesticide167,108-39-4,cresol,TRUE
Pesticide168,108-60-1,DCIP,FALSE
Pesticide169,108-62-3,metaldehyde,FALSE
Pesticide170,108-80-5,trihydroxytriazine,FALSE
Pesticide171,109-62-6,ethylmercury acetate,FALSE
Pesticide172,109-94-4,ethyl formate,FALSE
Pesticide173,112-05-0,pelargonic acid,FALSE
Pesticide174,113-48-4,zengxiaoan,FALSE
Pesticide175,114-26-1,propoxur,FALSE
Pesticide176,115-26-4,dimefox,FALSE
Pesticide177,115-29-7,endosulfan,FALSE
Pesticide178,115-32-2,dicofol,FALSE
Pesticide179,115-78-6,chlorphonium chloride,FALSE
Pesticide180,115-90-2,fensulfothion,FALSE
Pesticide181,115-93-5,cythioate,FALSE
Pesticide182,116-01-8,ethoate-methyl,FALSE
Pesticide183,116-06-3,aldicarb,FALSE
Pesticide184,116-16-5,hexachloroacetone,FALSE
Pesticide185,116-29-0,tetradifon,FALSE
Pesticide186,116-52-9,dichloralurea,FALSE
Pesticide187,117-18-0,tecnazene,FALSE
Pesticide188,117-52-2,coumafuryl,FALSE
Pesticide189,117-80-6,dichlone,FALSE
Pesticide190,118-74-1,hexachlorobenzene,FALSE
Pesticide191,118-75-2,chloranil,FALSE
Pesticide192,119-12-0,pyridaphenthion,FALSE
Pesticide193,119-38-0,isolan,FALSE
Pesticide194,119-89-1,piperonyl cyclonene,FALSE
Pesticide195,120-23-0,naphthoxyacetic acids,FALSE
Pesticide196,120-36-5,dichlorprop,FALSE
Pesticide197,120-39-8,"2,4,5-T-pentyl",FALSE
Pesticide198,120-51-4,benzyl benzoate,FALSE
Pesticide199,120-62-7,sulfoxide,FALSE
Pesticide200,121-20-0,cinerin II,FALSE
Pesticide201,121-21-1,pyrethrin I,FALSE
Pesticide202,121-29-9,pyrethrin II,FALSE
Pesticide203,121-75-5,malathion,FALSE
Pesticide204,122-14-5,fenitrothion,FALSE
Pesticide205,122-15-6,dimetan,FALSE
Pesticide206,122-34-9,simazine,FALSE
Pesticide207,122-39-4,diphenylamine,FALSE
Pesticide208,122-42-9,propham,FALSE
Pesticide209,122-88-3,4-CPA,FALSE
Pesticide210,123-33-1,maleic hydrazide,FALSE
Pesticide211,123-88-6,2-methoxyethylmercury chloride,FALSE
Pesticide212,124-58-3,MAA,FALSE
Pesticide213,124-65-2,sodium cacodylate,FALSE
Pesticide214,125-67-7,potassium gibberellate,FALSE
Pesticide215,126-07-8,griseofulvin,FALSE
Pesticide216,126-22-7,butonate,FALSE
Pesticide217,126-75-0,demeton-S,FALSE
Pesticide218,127-20-8,dalapon-sodium,FALSE
Pesticide219,127-63-9,diphenyl sulfone,FALSE
Pesticide220,127-90-2,octachlorodipropyl ether,FALSE
Pesticide221,129-06-6,warfarin-sodium,FALSE
Pesticide222,129-67-9,endothal-disodium,FALSE
Pesticide223,131-11-3,dimethyl phthalate,FALSE
Pesticide224,131-52-2,sodium pentachlorophenate,FALSE
Pesticide225,131-72-6,dinocap,TRUE
Pesticide226,131-89-5,dinex,FALSE
Pesticide227,132-27-4,sodium o-phenylphenoxide,FALSE
Pesticide228,132-66-1,naptalam,FALSE
Pesticide229,132-67-2,naptalam-sodium,FALSE
Pesticide230,133-06-2,captan,FALSE
Pesticide231,133-07-3,folpet,FALSE
Pesticide232,133-32-4,IBA,FALSE
Pesticide233,133-90-4,chloramben,FALSE
Pesticide234,134-31-6,8-hydroxyquinoline sulfate,FALSE
Pesticide235,134-62-3,diethyltoluamide,FALSE
Pesticide236,135-58-0,mesulfen,FALSE
Pesticide237,136-25-4,erbon,FALSE
Pesticide238,136-45-8,quyingding,FALSE
Pesticide239,136-63-0,bucarpolate,FALSE
Pesticide240,136-78-7,disul-sodium,FALSE
Pesticide241,137-26-8,thiram,FALSE
Pesticide242,137-30-4,ziram,FALSE
Pesticide243,137-41-7,metam-potassium,FALSE
Pesticide244,137-42-8,metam-sodium,FALSE
Pesticide245,139-40-2,propazine,FALSE
Pesticide246,140-41-0,monuron TCA,FALSE
Pesticide247,140-56-7,fenaminosulf,FALSE
Pesticide248,140-57-8,aramite,FALSE
Pesticide249,140-89-6,potassium ethylxanthate,FALSE
Pesticide250,140-93-2,proxan-sodium,FALSE
Pesticide251,141-03-7,dibutyl succinate,FALSE
Pesticide252,141-66-2,dicrotophos,FALSE
Pesticide253,142-59-6,nabam,FALSE
Pesticide254,142-71-2,copper acetate,FALSE
Pesticide255,143-33-9,sodium cyanide,FALSE
Pesticide256,143-50-0,chlordecone,FALSE
Pesticide257,144-21-8,DSMA,FALSE
Pesticide258,144-41-2,morphothion,FALSE
Pesticide259,144-49-0,fluoroacetic acid,FALSE
Pesticide260,144-54-7,metam,FALSE
Pesticide261,145-73-3,endothal,FALSE
Pesticide262,148-79-8,thiabendazole,FALSE
Pesticide263,149-26-8,disul,FALSE
Pesticide264,150-50-5,merphos,FALSE
Pesticide265,150-68-5,monuron,FALSE
Pesticide266,152-16-9,schradan,FALSE
Pesticide267,156-62-7,calcium cyanamide,FALSE
Pesticide268,283-60-3,silatrane,FALSE
Pesticide269,297-78-9,isobenzan,FALSE
Pesticide270,297-97-2,thionazin,FALSE
Pesticide271,298-00-0,parathion-methyl,FALSE
Pesticide272,298-02-2,phorate,FALSE
Pesticide273,298-03-3,demeton-O,FALSE
Pesticide274,298-04-4,disulfoton,FALSE
Pesticide275,299-84-3,fenchlorphos,FALSE
Pesticide276,299-85-4,DMPA,FALSE
Pesticide277,299-86-5,crufomate,FALSE
Pesticide278,300-76-5,naled,FALSE
Pesticide279,301-12-2,oxydemeton-methyl,FALSE
Pesticide280,302-49-8,uredepa,FALSE
Pesticide281,304-81-4,phenazine oxide,FALSE
Pesticide282,309-00-2,aldrin,TRUE
Pesticide283,314-40-9,bromacil,FALSE
Pesticide284,314-42-1,isocil,FALSE
Pesticide285,315-18-4,mexacarbate,FALSE
Pesticide286,317-83-9,dinex-diclexine,FALSE
Pesticide287,327-98-0,trichloronat,FALSE
Pesticide288,330-54-1,diuron,FALSE
Pesticide289,330-55-2,linuron,FALSE
Pesticide290,333-20-0,potassium thiocyanate,FALSE
Pesticide291,333-41-5,diazinon,FALSE
Pesticide292,370-50-3,flucofuron,FALSE
Pesticide293,371-86-8,mipafox,FALSE
Pesticide294,405-30-1,fluorbenside,FALSE
Pesticide295,420-04-2,cyanamide,FALSE
Pesticide296,453-11-2,gliftor,TRUE
Pesticide297,453-13-4,gliftor,TRUE
Pesticide298,460-19-5,cyanogen,FALSE
Pesticide299,461-58-5,DCD,FALSE
Pesticide300,463-58-1,carbonyl sulfide,FALSE
Pesticide301,464-49-3,d-camphor,FALSE
Pesticide302,465-73-6,isodrin,FALSE
Pesticide303,467-69-6,flurenol,FALSE
Pesticide304,470-90-6,chlorfenvinphos,FALSE
Pesticide305,481-06-1,santonin,FALSE
Pesticide306,483-63-6,crotamiton,FALSE
Pesticide307,484-12-8,osthol,FALSE
Pesticide308,485-31-4,binapacryl,FALSE
Pesticide309,494-52-0,anabasine,FALSE
Pesticide310,494-97-3,nornicotine,FALSE
Pesticide311,495-18-1,benzohydroxamic acid,FALSE
Pesticide312,495-73-8,benquinox,FALSE
Pesticide313,499-75-2,carvacrol,FALSE
Pesticide314,501-94-0,4-hydroxyphenethyl alcohol,FALSE
Pesticide315,502-39-6,methylmercury dicyandiamide,FALSE
Pesticide316,502-55-6,EXD,FALSE
Pesticide317,504-24-5,4-aminopyridine,FALSE
Pesticide318,507-60-8,scilliroside,FALSE
Pesticide319,510-15-6,chlorobenzilate,FALSE
Pesticide320,517-16-8,N-(ethylmercury)-p-toluenesulfonanilide,FALSE
Pesticide321,519-02-8,matrine,FALSE
Pesticide322,520-45-6,dehydroacetic acid,FALSE
Pesticide323,525-79-1,kinetin,FALSE
Pesticide324,526-07-8,sesamolin,FALSE
Pesticide325,532-34-3,butopyronoxyl,FALSE
Pesticide326,533-23-3,"2,4-D-ethyl",FALSE
Pesticide327,533-74-4,dazomet,FALSE
Pesticide328,534-52-1,DNOC,FALSE
Pesticide329,535-89-7,crimidine,FALSE
Pesticide330,539-86-6,allicin,FALSE
Pesticide331,540-72-7,sodium thiocyanate,FALSE
Pesticide332,542-75-6,"1,3-dichloropropene",FALSE
Pesticide333,543-21-5,cellocidin,FALSE
Pesticide334,545-55-1,tepa,FALSE
Pesticide335,555-37-3,neburon,FALSE
Pesticide336,556-22-9,glyodin,FALSE
Pesticide337,556-61-6,methyl isothiocyanate,FALSE
Pesticide338,557-30-2,glyoxime,FALSE
Pesticide339,563-12-2,ethion,FALSE
Pesticide340,572-48-5,coumithoate,FALSE
Pesticide341,580-48-3,chlorazine,FALSE
Pesticide342,581-96-4,a-naphthaleneacetic acids,FALSE
Pesticide343,584-79-2,allethrin,FALSE
Pesticide344,587-56-4,CEPC,FALSE
Pesticide345,588-22-7,"3,4-DA",FALSE
Pesticide346,590-28-3,potassium cyanate,FALSE
Pesticide347,592-01-8,calcium cyanide,FALSE
Pesticide348,593-50-0,triacontanol,FALSE
Pesticide349,608-73-1,HCH,FALSE
Pesticide350,624-92-0,dimethyl disulfide,FALSE
Pesticide351,633-65-8,berberine chloride,FALSE
Pesticide352,639-58-7,fentin chloride,FALSE
Pesticide353,640-15-3,thiometon,FALSE
Pesticide354,640-19-7,fluoroacetamide,FALSE
Pesticide355,644-06-4,precocene II,FALSE
Pesticide356,644-64-4,dimetilan,FALSE
Pesticide357,645-05-6,altretamine,FALSE
Pesticide358,650-51-1,TCA-sodium,FALSE
Pesticide359,668-34-8,fentin,FALSE
Pesticide360,671-04-5,carbanolate,FALSE
Pesticide361,673-04-1,simeton,FALSE
Pesticide362,680-31-9,hempa,FALSE
Pesticide363,682-80-4,demephion-O,FALSE
Pesticide364,682-91-7,ethylicin,FALSE
Pesticide365,709-98-8,propanil,FALSE
Pesticide366,731-27-1,tolylfluanid,FALSE
Pesticide367,732-11-6,phosmet,FALSE
Pesticide368,741-58-2,bensulide,FALSE
Pesticide369,756-09-2,flupropanate,FALSE
Pesticide370,759-94-4,EPTC,FALSE
Pesticide371,771-03-9,dehydroacetic acid,FALSE
Pesticide372,786-19-6,carbophenothion,FALSE
Pesticide373,834-12-8,ametryn,FALSE
Pesticide374,841-06-5,methoprotryne,FALSE
Pesticide375,867-27-6,demeton-O-methyl,FALSE
Pesticide376,882-09-7,clofibric acid,FALSE
Pesticide377,886-50-0,terbutryn,FALSE
Pesticide378,887-54-7,chlorthal-monomethyl,FALSE
Pesticide379,900-95-8,fentin acetate,FALSE
Pesticide380,919-54-0,acethion,FALSE
Pesticide381,919-76-6,amidithion,FALSE
Pesticide382,919-86-8,demeton-S-methyl,FALSE
Pesticide383,944-22-9,fonofos,FALSE
Pesticide384,947-02-4,phosfolan,FALSE
Pesticide385,950-00-5,nitrostyrene,FALSE
Pesticide386,950-10-7,mephosfolan,FALSE
Pesticide387,950-37-8,methidathion,FALSE
Pesticide388,957-51-7,diphenamid,FALSE
Pesticide389,959-98-8,alpha-endosulfan,FALSE
Pesticide390,963-22-4,sultropen,FALSE
Pesticide391,973-21-7,dinobuton,FALSE
Pesticide392,991-42-4,norbormide,FALSE
Pesticide393,999-81-5,chlormequat chloride,FALSE
Pesticide394,1014-69-3,desmetryn,FALSE
Pesticide395,1014-70-6,simetryn,FALSE
Pesticide396,1022-46-4,bentranil,FALSE
Pesticide397,1031-47-6,triamiphos,FALSE
Pesticide398,1068-22-0,kejunlin,FALSE
Pesticide399,1071-83-6,glyphosate,FALSE
Pesticide400,1076-46-6,chloramben-ammonium,FALSE
Pesticide401,1085-98-9,dichlofluanid,FALSE
Pesticide402,1086-02-8,pyridinitril,FALSE
Pesticide403,1113-02-6,omethoate,FALSE
Pesticide404,1114-71-2,pebulate,FALSE
Pesticide405,1120-44-1,copper oleate,FALSE
Pesticide406,1129-41-5,metolcarb,FALSE
Pesticide407,1134-23-2,cycloate,FALSE
Pesticide408,1172-63-0,jasmolin II,FALSE
Pesticide409,1194-65-6,dichlobenil,FALSE
Pesticide410,1214-39-7,benzyladenine,FALSE
Pesticide411,1216-44-0,flurenol-methyl,FALSE
Pesticide412,1300-71-6,xylenols,FALSE
Pesticide413,1300-78-3,tolylmercury acetate,FALSE
Pesticide414,1303-96-4,borax,FALSE
Pesticide415,1305-62-0,hydrated lime,FALSE
Pesticide416,1314-84-7,zinc phosphide,FALSE
Pesticide417,1317-39-1,cuprous oxide,FALSE
Pesticide418,1319-77-3,cresol,FALSE
Pesticide419,1320-15-6,"2,4-DB-isoctyl",FALSE
Pesticide420,1320-18-9,"2,4-D-doboxyl",FALSE
Pesticide421,1327-53-3,arsenous oxide,FALSE
Pesticide422,1332-40-7,copper oxychloride,FALSE
Pesticide423,1333-22-8,basic copper sulfate,FALSE
Pesticide424,1336-14-7,copper zinc chromate,FALSE
Pesticide425,1338-02-9,copper naphthenate,FALSE
Pesticide426,1344-08-7,sodium polysulfide,FALSE
Pesticide427,1344-72-5,copper silicate,FALSE
Pesticide428,1344-81-6,calcium polysulfide,FALSE
Pesticide429,1420-04-8,niclosamide-olamine,FALSE
Pesticide430,1420-06-0,trifenmorph,FALSE
Pesticide431,1420-07-1,dinoterb,FALSE
Pesticide432,1420-07-1,dinoterb,FALSE
Pesticide433,1432-14-0,mecoprop-diolamine,FALSE
Pesticide434,1468-37-7,dimexano,FALSE
Pesticide435,1491-41-4,naftalofos,FALSE
Pesticide436,1532-24-7,clopyralid-methyl,FALSE
Pesticide437,1563-66-2,carbofuran,FALSE
Pesticide438,1563-67-3,decarbofuran,FALSE
Pesticide439,1582-09-8,trifluralin,FALSE
Pesticide440,1593-77-7,dodemorph,FALSE
Pesticide441,1596-84-5,daminozide,FALSE
Pesticide442,1609-47-8,diethyl pyrocarbonate,FALSE
Pesticide443,1610-17-9,atraton,FALSE
Pesticide444,1610-18-0,prometon,FALSE
Pesticide445,1637-39-4,zeatin,FALSE
Pesticide446,1646-88-4,aldoxycarb,FALSE
Pesticide447,1689-83-4,ioxynil,FALSE
Pesticide448,1689-84-5,bromoxynil,FALSE
Pesticide449,1689-99-2,bromoxynil octanoate,FALSE
Pesticide450,1696-17-9,rebemide,FALSE
Pesticide451,1698-60-8,chloridazon,FALSE
Pesticide452,1702-17-6,clopyralid,FALSE
Pesticide453,1708-41-4,furalane,FALSE
Pesticide454,1713-11-7,MCPA-isobutyl,FALSE
Pesticide455,1713-12-8,MCPA-butyl,FALSE
Pesticide456,1713-15-1,"2,4-D-isobutyl",FALSE
Pesticide457,1715-40-8,bromocyclen,FALSE
Pesticide458,1716-09-2,fenthion-ethyl,FALSE
Pesticide459,1746-81-2,monolinuron,FALSE
Pesticide460,1754-58-1,diamidafos,FALSE
Pesticide461,1771-07-9,methometon,FALSE
Pesticide462,1773-37-1,carbasulam,FALSE
Pesticide463,1776-83-6,quintiofos,FALSE
Pesticide464,1786-03-4,"naphthylindane-1,3-diones",FALSE
Pesticide465,1824-09-5,mesoprazine,FALSE
Pesticide466,1836-75-5,nitrofen,FALSE
Pesticide467,1836-77-7,chlornitrofen,FALSE
Pesticide468,1861-32-1,chlorthal-dimethyl,FALSE
Pesticide469,1861-40-1,benfluralin,FALSE
Pesticide470,1861-44-5,tritac,FALSE
Pesticide471,1891-95-8,chloroxynil,FALSE
Pesticide472,1897-45-6,chlorothalonil,FALSE
Pesticide473,1910-42-5,paraquat dichloride,FALSE
Pesticide474,1912-24-9,atrazine,FALSE
Pesticide475,1912-25-0,ipazine,FALSE
Pesticide476,1912-26-1,trietazine,FALSE
Pesticide477,1917-92-6,"2,4-D-pentyl",FALSE
Pesticide478,1917-97-1,"2,4-D-meptyl",FALSE
Pesticide479,1918-00-9,dicamba,FALSE
Pesticide480,1918-02-1,picloram,FALSE
Pesticide481,1918-08-7,dipropalin,FALSE
Pesticide482,1918-11-2,terbucarb,FALSE
Pesticide483,1918-13-4,chlorthiamid,FALSE
Pesticide484,1918-16-7,propachlor,FALSE
Pesticide485,1918-18-9,swep,FALSE
Pesticide486,1928-37-6,"2,4,5-T-methyl",FALSE
Pesticide487,1928-38-7,"2,4-D-methyl",FALSE
Pesticide488,1928-43-4,"2,4-D-etexyl",FALSE
Pesticide489,1928-44-5,"2,4-D-octyl",FALSE
Pesticide490,1928-45-6,"2,4-D-terboxyl",FALSE
Pesticide491,1928-47-8,"2,4,5-T-etexyl",FALSE
Pesticide492,1928-48-9,"2,4,5-T-terboxyl",FALSE
Pesticide493,1928-61-6,"2,4-D-propyl",FALSE
Pesticide494,1929-73-3,"2,4-D-butotyl",FALSE
Pesticide495,1929-77-7,vernolate,FALSE
Pesticide496,1929-82-4,nitrapyrin,FALSE
Pesticide497,1929-86-8,mecoprop-potassium,FALSE
Pesticide498,1929-88-0,benzthiazuron,FALSE
Pesticide499,1954-81-0,chloramben-sodium,FALSE
Pesticide500,1966-58-1,dichlormate,FALSE
Pesticide501,1967-16-4,chlorbufam,FALSE
Pesticide502,1970-40-7,pyriclor,FALSE
Pesticide503,1982-47-4,chloroxuron,FALSE
Pesticide504,1982-49-6,siduron,FALSE
Pesticide505,1982-69-0,dicamba-sodium,FALSE
Pesticide506,2008-39-1,"2,4-D-dimethylammonium",FALSE
Pesticide507,2008-41-5,butylate,FALSE
Pesticide508,2008-46-0,"2,4,5-T-triethylammonium",FALSE
Pesticide509,2032-59-9,aminocarb,FALSE
Pesticide510,2032-65-7,methiocarb,FALSE
Pesticide511,2039-46-5,MCPA-dimethylammonium,FALSE
Pesticide512,2058-46-0,oxytetracycline hydrochloride,FALSE
Pesticide513,2074-50-2,paraquat dimetilsulfate,FALSE
Pesticide514,2078-42-4,"2,3,6-TBA-sodium",FALSE
Pesticide515,2079-00-7,blasticidin-S,FALSE
Pesticide516,2086-83-1,berberine,FALSE
Pesticide517,2088-72-4,methylacetophos,FALSE
Pesticide518,2104-64-5,EPN,FALSE
Pesticide519,2104-96-3,bromophos,FALSE
Pesticide520,2122-70-5,ethyl 1-naphthaleneacetate,FALSE
Pesticide521,2122-77-2,fenteracol,FALSE
Pesticide522,2136-79-0,chlorthal,FALSE
Pesticide523,2150-32-5,CPPC,FALSE
Pesticide524,2163-69-1,cycluron,FALSE
Pesticide525,2163-80-6,MSMA,FALSE
Pesticide526,2164-07-0,endothal-dipotassium,FALSE
Pesticide527,2164-08-1,lenacil,FALSE
Pesticide528,2164-09-2,chloranocryl,FALSE
Pesticide529,2164-13-8,BCPC,FALSE
Pesticide530,2164-17-2,fluometuron,FALSE
Pesticide531,2168-68-5,morzid,FALSE
Pesticide532,2212-54-6,"2,4-D-dodecylammonium",FALSE
Pesticide533,2212-67-1,molinate,FALSE
Pesticide534,2227-13-6,tetrasul,FALSE
Pesticide535,2227-17-0,dienochlor,FALSE
Pesticide536,2235-25-8,ethylmercury phosphate,FALSE
Pesticide537,2274-74-0,chlorfensulphide,FALSE
Pesticide538,2275-14-1,phenkapton,FALSE
Pesticide539,2275-18-5,prothoate,FALSE
Pesticide540,2275-23-2,vamidothion,FALSE
Pesticide541,2279-64-3,phenylmercuriurea,FALSE
Pesticide542,2300-66-5,dicamba-dimethylammonium,FALSE
Pesticide543,2302-17-2,asulam-sodium,FALSE
Pesticide544,2303-16-4,di-allate,FALSE
Pesticide545,2303-17-5,tri-allate,FALSE
Pesticide546,2307-49-5,tricamba,FALSE
Pesticide547,2307-55-3,"2,4-D-ammonium",FALSE
Pesticide548,2307-68-8,pentanochlor,FALSE
Pesticide549,2310-17-0,phosalone,FALSE
Pesticide550,2312-35-8,propargite,FALSE
Pesticide551,2312-76-7,DNOC-sodium,FALSE
Pesticide552,2314-09-2,flurenol-butyl,FALSE
Pesticide553,2315-36-8,CDEA,FALSE
Pesticide554,2321-53-1,MAMA,FALSE
Pesticide555,2365-40-4,2iP,FALSE
Pesticide556,2385-85-5,mirex,FALSE
Pesticide557,2401-85-6,chlorodinitronaphthalenes,FALSE
Pesticide558,2425-06-1,captafol,FALSE
Pesticide559,2425-10-7,xylylcarb,FALSE
Pesticide560,2425-20-9,siglure,FALSE
Pesticide561,2425-25-4,acetophos,FALSE
Pesticide562,2436-73-9,MCPA-methyl,FALSE
Pesticide563,2439-00-1,chlorfenac-sodium,FALSE
Pesticide564,2439-01-2,chinomethionat,FALSE
Pesticide565,2439-10-3,dodine,FALSE
Pesticide566,2439-99-8,glyphosine,FALSE
Pesticide567,2440-35-9,tolylmercury acetate,TRUE
Pesticide568,2445-07-0,urbacide,FALSE
Pesticide569,2447-54-3,sanguinarine,FALSE
Pesticide570,2463-84-5,dicapthon,FALSE
Pesticide571,2464-37-1,chlorflurenol,FALSE
Pesticide572,2487-01-6,medinoterb acetate,FALSE
Pesticide573,2497-07-6,oxydisulfoton,FALSE
Pesticide574,2514-53-6,TCA-ethadyl,FALSE
Pesticide575,2532-49-2,pyramat,FALSE
Pesticide576,2533-89-3,erlujixiancaoan,FALSE
Pesticide577,2536-31-4,chlorflurenol-methyl,FALSE
Pesticide578,2540-82-1,formothion,FALSE
Pesticide579,2544-94-7,etinofen,FALSE
Pesticide580,2545-59-7,"2,4,5-T-butotyl",FALSE
Pesticide581,2545-60-0,picloram-potassium,FALSE
Pesticide582,2550-75-6,chlorbicyclen,FALSE
Pesticide583,2569-01-9,"2,4-D-trolamine",FALSE
Pesticide584,2758-42-1,"2,4-DB-dimethylammonium",FALSE
Pesticide585,2587-90-8,demephion-S,FALSE
Pesticide586,2593-15-9,etridiazole,FALSE
Pesticide587,2595-54-2,mecarbam,FALSE
Pesticide588,2597-03-7,phenthoate,FALSE
Pesticide589,2597-92-4,"ethylmercury 2,3-dihydroxypropyl mercaptide",FALSE
Pesticide590,2598-31-4,quinacetol sulfate,FALSE
Pesticide591,2610-86-8,warfarin-potassium,FALSE
Pesticide592,2620-53-3,mephenate,FALSE
Pesticide593,2631-37-0,promecarb,FALSE
Pesticide594,2631-40-5,isoprocarb,FALSE
Pesticide595,2631-68-7,trichlorotrinitrobenzenes,FALSE
Pesticide596,2633-54-7,trichlormetaphos-3,FALSE
Pesticide597,2636-26-2,cyanophos,FALSE
Pesticide598,2642-71-9,azinphos-ethyl,FALSE
Pesticide599,2646-78-8,"2,4-D-triethylammonium",FALSE
Pesticide600,2655-14-3,XMC,FALSE
Pesticide601,2655-15-4,trimethacarb,TRUE
Pesticide602,2655-19-8,butacarb,FALSE
Pesticide603,2669-32-1,lythidathion,FALSE
Pesticide604,2674-91-1,oxydeprofos,FALSE
Pesticide605,2675-77-6,chloroneb,FALSE
Pesticide606,2686-99-9,trimethacarb,TRUE
Pesticide607,2689-43-2,anisuron,FALSE
Pesticide608,2693-61-0,haloxydine,FALSE
Pesticide609,2698-38-6,MCPA-ethyl,FALSE
Pesticide610,2698-40-0,MCPA-isopropyl,FALSE
Pesticide611,2699-79-8,sulfuryl fluoride,FALSE
Pesticide612,2702-72-9,"2,4-D-sodium",FALSE
Pesticide613,2759-71-9,cypromid,FALSE
Pesticide614,2764-72-9,diquat,FALSE
Pesticide615,2778-04-3,endothion,FALSE
Pesticide616,2786-19-8,mecoprop-methyl,FALSE
Pesticide617,2797-51-5,quinoclamine,FALSE
Pesticide618,2813-95-8,dinoseb acetate,FALSE
Pesticide619,2818-16-8,fenoprop-potassium,FALSE
Pesticide620,2859-68-9,pyripropanol,FALSE
Pesticide621,2887-61-8,fenjuntong,FALSE
Pesticide622,2921-88-2,chlorpyrifos,FALSE
Pesticide623,2941-55-1,ethiolate,FALSE
Pesticide624,2961-61-7,ioxynil-lithium,FALSE
Pesticide625,2961-62-8,ioxynil-sodium,FALSE
Pesticide626,2961-68-4,bromoxynil-potassium,FALSE
Pesticide627,2976-75-2,naphthoxyacetic acids,FALSE
Pesticide628,2980-64-5,DNOC-ammonium,FALSE
Pesticide629,2990-17-2,bromo-DDT,FALSE
Pesticide630,3042-84-0,brompyrazon,FALSE
Pesticide631,3050-27-9,trimeturon,FALSE
Pesticide632,3060-89-7,metobromuron,FALSE
Pesticide633,3084-62-6,"2,4,5-T-doboxyl",FALSE
Pesticide634,3100-04-7,1-methylcyclopropene,FALSE
Pesticide635,3134-12-1,phenobenzuron,FALSE
Pesticide636,3134-70-1,isopolinate,FALSE
Pesticide637,3160-91-6,moroxydine hydrochloride,FALSE
Pesticide638,3204-27-1,dinoterb acetate,FALSE
Pesticide639,3278-46-4,chloropon,FALSE
Pesticide640,3295-78-1,dimidazon,FALSE
Pesticide641,3307-37-7,"3,4-DB",FALSE
Pesticide642,3307-39-9,4-CPP,FALSE
Pesticide643,3307-41-3,"3,4-DP",FALSE
Pesticide644,3337-71-1,asulam,FALSE
Pesticide645,3347-22-6,dithianon,FALSE
Pesticide646,3383-96-8,temephos,FALSE
Pesticide647,3391-86-4,moguchun,FALSE
Pesticide648,3426-62-8,"2,3,6-TBA-dimethylammonium",FALSE
Pesticide649,3452-97-9,nonanol,FALSE
Pesticide650,3478-94-2,piperalin,FALSE
Pesticide651,3495-42-9,chlorquinox,FALSE
Pesticide652,3527-55-7,methyl apholate,FALSE
Pesticide653,3547-07-7,4-CPB,FALSE
Pesticide654,3547-33-9,2-(octylthio)ethanol,FALSE
Pesticide655,3566-10-7,amobam,FALSE
Pesticide656,3567-25-7,sulcofuron-sodium,FALSE
Pesticide657,3572-06-3,cue-lure,FALSE
Pesticide658,3574-96-7,chlorfenazole,FALSE
Pesticide659,3586-60-5,asomate,FALSE
Pesticide660,3604-87-3,a-ecdysone,FALSE
Pesticide661,3615-21-2,chlorflurazole,FALSE
Pesticide662,3626-13-9,methylmercury benzoate,FALSE
Pesticide663,3653-39-2,hexamide,FALSE
Pesticide664,3653-48-3,MCPA-sodium,FALSE
Pesticide665,3689-24-5,sulfotep,FALSE
Pesticide666,3691-35-8,chlorophacinone,FALSE
Pesticide667,3696-28-4,dipyrithione,FALSE
Pesticide668,3731-59-7,moroxydine,FALSE
Pesticide669,3732-82-9,thiohempa,FALSE
Pesticide670,3734-95-0,cyanthoate,FALSE
Pesticide671,3734-97-2,amiton oxalate,FALSE
Pesticide672,3740-92-9,fenclorim,FALSE
Pesticide673,3761-41-9,mesulfenfos,FALSE
Pesticide674,3766-27-6,"2,4-D-lithium",FALSE
Pesticide675,3766-60-7,buturon,FALSE
Pesticide676,3766-81-2,fenobucarb,FALSE
Pesticide677,3772-94-9,pentachlorophenyl laurate,FALSE
Pesticide678,3773-49-7,milneb,FALSE
Pesticide679,3810-74-0,streptomycin sulfate,FALSE
Pesticide680,3811-49-2,dioxabenzofos,FALSE
Pesticide681,3813-05-6,benazolin,FALSE
Pesticide682,3813-14-7,"2,4,5-T-trolamine",FALSE
Pesticide683,3861-41-4,bromoxynil butyrate,FALSE
Pesticide684,3861-47-0,ioxynil octanoate,FALSE
Pesticide685,3878-19-1,fuberidazole,FALSE
Pesticide686,3926-62-3,SMA,FALSE
Pesticide687,3942-54-9,CPMC,FALSE
Pesticide688,3996-59-6,medinoterb,FALSE
Pesticide689,4024-81-1,OCH,FALSE
Pesticide690,4029-02-1,diethamquat dichloride,FALSE
Pesticide691,4032-26-2,diquat dichloride,FALSE
Pesticide692,4097-36-3,dinosam,FALSE
Pesticide693,4104-14-7,phosacetim,FALSE
Pesticide694,4147-51-7,dipropetryn,FALSE
Pesticide695,4151-50-2,sulfluramid,FALSE
Pesticide696,4212-93-5,terbuchlor,FALSE
Pesticide697,4234-79-1,kelevan,FALSE
Pesticide698,4301-50-2,fluenetil,FALSE
Pesticide699,4466-14-2,jasmolin I,FALSE
Pesticide700,4482-55-7,fenuron TCA,FALSE
Pesticide701,4489-31-0,oxapyrazon,FALSE
Pesticide702,4559-30-2,"2,3,6-TBA-potassium",FALSE
Pesticide703,4630-06-2,sulcatol,FALSE
Pesticide704,4636-83-3,morfamquat dichloride,FALSE
Pesticide705,4658-28-0,aziprotryne,FALSE
Pesticide706,4685-14-7,paraquat,FALSE
Pesticide707,4726-14-1,nitralin,FALSE
Pesticide708,4824-78-6,bromophos-ethyl,FALSE
Pesticide709,4841-20-7,fenoprop-methyl,FALSE
Pesticide710,4849-32-5,karbutilate,FALSE
Pesticide711,4938-72-1,"2,4,5-T-isobutyl",FALSE
Pesticide712,5120-23-0,phosfolan-methyl,FALSE
Pesticide713,5131-24-8,ditalimfos,FALSE
Pesticide714,5221-16-9,MCPA-potassium,FALSE
Pesticide715,5221-49-8,pyrimitate,FALSE
Pesticide716,5221-53-4,dimethirimol,FALSE
Pesticide717,5234-68-4,carboxin,FALSE
Pesticide718,5251-79-6,benzadox-ammonium,FALSE
Pesticide719,5251-93-4,benzadox,FALSE
Pesticide720,5259-88-1,oxycarboxin,FALSE
Pesticide721,5281-13-0,piprotal,FALSE
Pesticide722,5289-74-7,ecdysterone,FALSE
Pesticide723,5386-57-2,dinopenton,FALSE
Pesticide724,5386-77-6,dinosulfon,FALSE
Pesticide725,5578-73-4,sanguinarine chloride,FALSE
Pesticide726,5598-13-0,chlorpyrifos-methyl,FALSE
Pesticide727,5598-52-7,fospirate,FALSE
Pesticide728,5707-69-7,drazoxolon,FALSE
Pesticide729,5707-73-3,metazoxolon,FALSE
Pesticide730,5742-17-6,"2,4-D-isopropylammonium",FALSE
Pesticide731,5742-19-8,"2,4-D-diolamine",FALSE
Pesticide732,5746-17-8,dichlorprop-potassium,FALSE
Pesticide733,5787-96-2,DNOC-potassium,FALSE
Pesticide734,5826-76-6,phosnichlor,FALSE
Pesticide735,5827-05-4,IPSP,FALSE
Pesticide736,5834-94-6,azithiram,FALSE
Pesticide737,5834-96-8,azothoate,FALSE
Pesticide738,5836-10-2,chloropropylate,FALSE
Pesticide739,5836-23-7,tecoram,FALSE
Pesticide740,5836-29-3,coumatetralyl,FALSE
Pesticide741,5836-73-7,promurit,FALSE
Pesticide742,5902-51-2,terbacil,FALSE
Pesticide743,5902-95-4,CMA,FALSE
Pesticide744,5903-13-9,MNAF,FALSE
Pesticide745,5915-41-3,terbuthylazine,FALSE
Pesticide746,5989-27-5,d-limonene,FALSE
Pesticide747,6012-84-6,(3-ethoxypropyl)mercury bromide,FALSE
Pesticide748,6012-85-7,EBEP,FALSE
Pesticide749,6022-33-9,CPMF,FALSE
Pesticide750,6062-26-6,MCPB-sodium,FALSE
Pesticide751,6073-72-9,dinoterbon,FALSE
Pesticide752,6120-20-3,pindone-sodium,FALSE
Pesticide753,6164-98-3,chlordimeform,FALSE
Pesticide754,6275-69-0,propamidine dihydrochloride,FALSE
Pesticide755,6365-62-4,MCPA-olamine,FALSE
Pesticide756,6365-83-9,dinoseb-ammonium,FALSE
Pesticide757,6382-19-0,anabasine sulfate,FALSE
Pesticide758,6385-62-2,diquat dibromide,TRUE
Pesticide759,6386-63-6,cloxyfonac,FALSE
Pesticide760,6392-46-7,allyxycarb,FALSE
Pesticide761,6420-47-9,dinoseb-trolamine,FALSE
Pesticide762,6465-92-5,calvinphos,FALSE
Pesticide763,6597-78-0,dicamba-methyl,FALSE
Pesticide764,6616-80-4,eglinazine-ethyl,FALSE
Pesticide765,6682-77-5,tripropindan,FALSE
Pesticide766,6753-24-8,"2,4-DB-butyl",FALSE
Pesticide767,6753-47-5,picloram-tripromine,FALSE
Pesticide768,6843-97-6,dodicin,FALSE
Pesticide769,6894-38-8,jasmonic acid,FALSE
Pesticide770,6923-22-4,monocrotophos,FALSE
Pesticide771,6980-18-3,kasugamycin,FALSE
Pesticide772,6988-21-2,dioxacarb,FALSE
Pesticide773,7003-89-6,chlormequat,FALSE
Pesticide774,7055-03-0,mebenil,FALSE
Pesticide775,7076-63-3,cuprobam,FALSE
Pesticide776,7085-19-0,mecoprop,FALSE
Pesticide777,7159-34-4,pyroxychlor,FALSE
Pesticide778,7159-99-1,parafluron,FALSE
Pesticide779,7173-98-0,"2,4,5-T-butometyl",FALSE
Pesticide780,7219-78-5,mazidox,FALSE
Pesticide781,7257-41-2,dinoprop,FALSE
Pesticide782,7286-69-3,sebuthylazine,FALSE
Pesticide783,7286-84-2,chloramben-methyl,FALSE
Pesticide784,7287-19-6,prometryn,FALSE
Pesticide785,7287-36-7,monalide,FALSE
Pesticide786,7292-16-2,propaphos,FALSE
Pesticide787,7345-69-9,sodium tetrathiocarbonate,FALSE
Pesticide788,7411-47-4,morfamquat,FALSE
Pesticide789,7446-18-6,thallium sulfate,FALSE
Pesticide790,7487-94-7,mercuric chloride,FALSE
Pesticide791,7546-30-7,mercurous chloride,FALSE
Pesticide792,7646-88-0,TCA-ammonium,FALSE
Pesticide793,7664-93-9,sulfuric acid,FALSE
Pesticide794,7681-49-4,sodium fluoride,FALSE
Pesticide795,7681-93-8,natamycin,FALSE
Pesticide796,7696-12-0,tetramethrin,FALSE
Pesticide797,7700-17-6,crotoxyphos,FALSE
Pesticide798,7704-34-9,sulfur,FALSE
Pesticide799,7720-78-7,ferrous sulfate,FALSE
Pesticide800,7723-14-0,phosphorus,FALSE
Pesticide801,7758-98-7,copper sulfate,FALSE
Pesticide802,7773-06-0,ammonium sulfamate,FALSE
Pesticide803,7775-09-9,sodium chlorate,FALSE
Pesticide804,7778-41-8,copper arsenate,FALSE
Pesticide805,7778-44-1,calcium arsenate,FALSE
Pesticide806,7782-63-0,ferrous sulfate heptahydrate,FALSE
Pesticide807,7784-40-9,lead arsenate,FALSE
Pesticide808,7784-46-5,sodium arsenite,FALSE
Pesticide809,7786-34-7,mevinphos,FALSE
Pesticide810,7803-51-2,phosphine,FALSE
Pesticide811,8001-35-2,camphechlor,FALSE
Pesticide812,8001-54-5,benzalkonium chloride,FALSE
Pesticide813,8003-34-7,pyrethrins,FALSE
Pesticide814,8011-63-0,Bordeaux mixture,FALSE
Pesticide815,8018-01-7,mancozeb,FALSE
Pesticide816,8022-00-2,demeton-methyl,FALSE
Pesticide817,8047-13-0,ryania,FALSE
Pesticide818,8051-02-3,sabadilla,FALSE
Pesticide819,8065-36-9,bufencarb,FALSE
Pesticide820,8065-41-6,aureofungin,FALSE
Pesticide821,8065-48-3,demeton,FALSE
Pesticide822,8065-62-1,demephion,FALSE
Pesticide823,8065-71-2,gliftor,FALSE
Pesticide824,9003-29-6,polybutenes,FALSE
Pesticide825,9006-42-2,metiram,FALSE
Pesticide826,9012-76-4,chitosan,FALSE
Pesticide827,9050-36-6,maltodextrin,FALSE
Pesticide828,10004-44-1,hymexazol,FALSE
Pesticide829,10007-85-9,dicamba-potassium,FALSE
Pesticide830,10043-35-3,boric acid,FALSE
Pesticide831,10045-86-0,ferric phosphate,FALSE
Pesticide832,10124-50-2,potassium arsenite,FALSE
Pesticide833,10137-74-3,calcium chlorate,FALSE
Pesticide834,10265-92-6,methamidophos,FALSE
Pesticide835,10311-84-9,dialifos,FALSE
Pesticide836,10380-28-6,oxine-copper,FALSE
Pesticide837,10433-59-7,"2,4-DB-sodium",FALSE
Pesticide838,10443-70-6,MCPB-ethyl,FALSE
Pesticide839,10453-86-8,resmethrin,FALSE
Pesticide840,10537-47-0,malonoben,FALSE
Pesticide841,10552-74-6,nitrothal-isopropyl,FALSE
Pesticide842,10597-73-6,japothrins,FALSE
Pesticide843,10605-21-7,carbendazim,FALSE
Pesticide844,11096-18-7,cufraneb,FALSE
Pesticide845,11104-05-5,grandlure,FALSE
Pesticide846,11113-80-7,polyoxins,FALSE
Pesticide847,11125-96-5,Burgundy mixture,FALSE
Pesticide848,11141-17-6,azadirachtin,FALSE
Pesticide849,12001-85-3,zinc naphthenate,FALSE
Pesticide850,12002-03-8,Paris green,FALSE
Pesticide851,12002-53-8,trimedlure,FALSE
Pesticide852,12057-74-8,magnesium phosphide,FALSE
Pesticide853,12068-08-5,benzamorf,FALSE
Pesticide854,12069-69-1,basic copper carbonate,FALSE
Pesticide855,12071-83-9,propineb,FALSE
Pesticide856,12122-67-7,zineb,FALSE
Pesticide857,12407-86-2,trimethacarb,FALSE
Pesticide858,12427-38-2,maneb,FALSE
Pesticide859,12771-68-5,ancymidol,FALSE
Pesticide860,13067-93-1,cyanofenphos,FALSE
Pesticide861,13071-79-9,terbufos,FALSE
Pesticide862,13121-70-5,cyhexatin,FALSE
Pesticide863,13171-21-6,phosphamidon,FALSE
Pesticide864,13181-17-4,bromofenoxim,FALSE
Pesticide865,13194-48-4,ethoprophos,FALSE
Pesticide866,13286-32-3,EBP,FALSE
Pesticide867,13356-08-6,fenbutatin oxide,FALSE
Pesticide868,13360-45-7,chlorbromuron,FALSE
Pesticide869,13457-18-6,pyrazophos,FALSE
Pesticide870,13463-10-0,ferric phosphate dihydrate,FALSE
Pesticide871,13516-27-3,iminoctadine,FALSE
Pesticide872,13557-98-7,fenoprop-butyl,FALSE
Pesticide873,13560-99-1,"2,4,5-T-sodium",FALSE
Pesticide874,13577-71-4,fluoromidine,FALSE
Pesticide875,13593-03-8,quinalphos,FALSE
Pesticide876,13593-08-3,quinalphos-methyl,FALSE
Pesticide877,13684-44-1,phenmedipham-ethyl,FALSE
Pesticide878,13684-56-5,desmedipham,FALSE
Pesticide879,13684-63-4,phenmedipham,FALSE
Pesticide880,13687-09-7,bisazir,FALSE
Pesticide881,13730-98-8,4-CPA-sodium,FALSE
Pesticide882,13738-63-1,fluoronitrofen,FALSE
Pesticide883,13804-51-8,juvenile hormone I,FALSE
Pesticide884,13929-18-5,medlure,FALSE
Pesticide885,13952-84-6,butylamine,FALSE
Pesticide886,14047-23-5,ampropylfos,FALSE
Pesticide887,14088-71-2,proclonol,FALSE
Pesticide888,14089-43-1,asulam-potassium,FALSE
Pesticide889,14143-55-6,picloram-methyl,FALSE
Pesticide890,14168-01-5,dilor,FALSE
Pesticide891,14214-32-5,difenoxuron,FALSE
Pesticide892,14235-86-0,hydrargaphen,FALSE
Pesticide893,14255-88-0,fenazaflor,FALSE
Pesticide894,14354-56-4,8-phenylmercurioxyquinoline,FALSE
Pesticide895,14437-17-3,chlorfenprop-methyl,FALSE
Pesticide896,14465-96-4,dimatif,FALSE
Pesticide897,14484-64-1,ferbam,FALSE
Pesticide898,14491-59-9,credazine,FALSE
Pesticide899,14698-29-4,oxolinic acid,FALSE
Pesticide900,14816-16-1,phoxim-methyl,FALSE
Pesticide901,14816-18-3,phoxim,FALSE
Pesticide902,14816-20-7,chlorphoxim,FALSE
Pesticide903,14959-86-5,looplure,FALSE
Pesticide904,15096-52-3,cryolite,FALSE
Pesticide905,15146-99-3,"2,4-D-tefuryl",FALSE
Pesticide906,15165-67-0,dichlorprop-P,FALSE
Pesticide907,15165-79-4,potassium 1-naphthaleneacetate,FALSE
Pesticide908,15263-52-2,cartap hydrochloride,FALSE
Pesticide909,15263-53-3,cartap,FALSE
Pesticide910,15299-99-7,napropamide,FALSE
Pesticide911,15302-91-7,mepiquat,FALSE
Pesticide912,15310-01-7,benodanil,FALSE
Pesticide913,15457-05-3,fluorodifen,FALSE
Pesticide914,15545-48-9,chlorotoluron,FALSE
Pesticide915,15589-31-8,terallethrin,FALSE
Pesticide916,15652-38-7,decafentin,FALSE
Pesticide917,15845-66-6,fosetyl,FALSE
Pesticide918,15879-93-3,chloralose,FALSE
Pesticide919,15972-60-8,alachlor,FALSE
Pesticide920,16114-35-5,dipymetitrone,FALSE
Pesticide921,16118-49-3,carbetamide,FALSE
Pesticide922,16094-02-3,TCA-magnesium,FALSE
Pesticide923,16484-77-8,mecoprop-P,FALSE
Pesticide924,16227-10-4,triazbutil,FALSE
Pesticide925,16606-64-7,ampropylfos,FALSE
Pesticide926,16672-87-0,ethephon,FALSE
Pesticide927,16752-77-5,methomyl,FALSE
Pesticide928,16759-59-4,benoxafos,FALSE
Pesticide929,16807-48-0,dehydroacetic acid,FALSE
Pesticide930,16837-52-8,oxymatrine,FALSE
Pesticide931,16893-85-9,sodium silicofluoride,FALSE
Pesticide932,17029-22-0,hexaflurate,FALSE
Pesticide933,17040-19-6,demeton-S-methylsulphon,FALSE
Pesticide934,17080-02-3,furethrin,FALSE
Pesticide935,17109-49-8,edifenphos,FALSE
Pesticide936,17125-80-3,barium hexafluorosilicate,FALSE
Pesticide937,17439-94-0,endothal-diammonium,FALSE
Pesticide938,17598-02-6,precocene I,FALSE
Pesticide939,17606-31-4,bensultap,FALSE
Pesticide940,17702-57-7,formparanate,FALSE
Pesticide941,17781-31-6,parinol,FALSE
Pesticide942,17804-35-2,benomyl,FALSE
Pesticide943,18181-70-9,jodfenphos,FALSE
Pesticide944,18181-80-1,bromopropylate,FALSE
Pesticide945,18205-85-1,dodicin hydrochloride,FALSE
Pesticide946,18357-78-3,methiobencarb,FALSE
Pesticide947,18467-77-1,dikegulac,FALSE
Pesticide948,18530-56-8,noruron,FALSE
Pesticide949,18584-79-7,"2,4-D-tripromine",FALSE
Pesticide950,18691-97-9,methabenzthiazuron,FALSE
Pesticide951,18809-57-9,EMPC,FALSE
Pesticide952,18854-01-8,isoxathion,FALSE
Pesticide953,19044-88-3,oryzalin,FALSE
Pesticide954,19095-88-6,mecoprop-sodium,FALSE
Pesticide955,19360-02-2,alorac,FALSE
Pesticide956,19398-13-1,fenoprop-butotyl,FALSE
Pesticide957,19408-46-9,kasugamycin hydrochloride,FALSE
Pesticide958,19431-84-6,curcumenol,FALSE
Pesticide959,19480-40-1,"2,4-DB-potassium",FALSE
Pesticide960,19480-43-4,MCPA-butotyl,FALSE
Pesticide961,19622-08-3,prothiocarb,FALSE
Pesticide962,19622-19-6,prothiocarb hydrochloride,FALSE
Pesticide963,19666-30-9,oxadiazon,FALSE
Pesticide964,19691-80-6,athidathion,FALSE
Pesticide965,19750-95-9,chlordimeform hydrochloride,FALSE
Pesticide966,19764-43-3,methoquin-butyl,FALSE
Pesticide967,19937-59-8,metoxuron,FALSE
Pesticide968,20057-31-2,tavron,FALSE
Pesticide969,20276-83-9,prothidathion,FALSE
Pesticide970,20290-99-7,brevicomin,FALSE
Pesticide971,20354-26-1,methazole,FALSE
Pesticide972,20405-19-0,MCPA-diolamine,FALSE
Pesticide973,20427-59-2,copper hydroxide,FALSE
Pesticide974,20711-10-8,ostramone,TRUE
Pesticide975,20762-60-1,potassium azide,FALSE
Pesticide976,20782-58-5,chloreturon,FALSE
Pesticide977,20856-57-9,chloraniformethan,FALSE
Pesticide978,20859-73-8,aluminium phosphide,FALSE
Pesticide979,20940-37-8,"2,4-D-diethylammonium",FALSE
Pesticide980,21087-64-9,metribuzin,FALSE
Pesticide981,21267-72-1,prynachlor,FALSE
Pesticide982,21293-29-8,abscisic acid,FALSE
Pesticide983,21348-16-3,TCA-calcium,FALSE
Pesticide984,21452-14-2,amicarthiazol,FALSE
Pesticide985,21452-18-6,metsulfovax,FALSE
Pesticide986,21540-35-2,methiuron,FALSE
Pesticide987,21548-32-3,fosthietan,FALSE
Pesticide988,21564-17-0,benthiazole,FALSE
Pesticide989,21609-90-5,leptophos,FALSE
Pesticide990,21634-96-8,dichlorflurenol-methyl,FALSE
Pesticide991,21689-84-9,cyanatryn,FALSE
Pesticide992,21722-85-0,inezin,FALSE
Pesticide993,21725-46-2,cyanazine,FALSE
Pesticide994,21757-82-4,plifenate,FALSE
Pesticide995,21780-04-1,holosulf,FALSE
Pesticide996,21908-53-2,mercuric oxide,FALSE
Pesticide997,21923-23-9,chlorthiophos,TRUE
Pesticide998,22052-63-7,jiecaowan,FALSE
Pesticide999,22059-21-8,ACC,FALSE
Pesticide1000,22212-55-1,benzoylprop-ethyl,FALSE
Pesticide1001,22212-56-2,benzoylprop,FALSE
Pesticide1002,22224-92-6,fenamiphos,FALSE
Pesticide1003,22248-79-9,tetrachlorvinphos,FALSE
Pesticide1004,22259-30-9,formetanate,FALSE
Pesticide1005,22431-62-5,bioethanomethrin,FALSE
Pesticide1006,22439-40-3,quinothion,FALSE
Pesticide1007,22571-07-9,pydanon,FALSE
Pesticide1008,22662-39-1,rafoxanide,FALSE
Pesticide1009,22781-23-3,bendiocarb,FALSE
Pesticide1010,22898-01-7,flupropanate-sodium,FALSE
Pesticide1011,22909-50-8,chlorfluren-methyl,FALSE
Pesticide1012,22936-75-0,dimethametryn,FALSE
Pesticide1013,22936-86-3,cyprazine,FALSE
Pesticide1014,22963-93-5,juvenile hormone III,FALSE
Pesticide1015,22976-86-9,polyoxorim,FALSE
Pesticide1016,23031-36-9,prallethrin,FALSE
Pesticide1017,23031-38-1,furamethrin,FALSE
Pesticide1018,23103-98-2,pirimicarb,FALSE
Pesticide1019,23121-99-5,chlorprocarb,FALSE
Pesticide1020,23135-22-0,oxamyl,FALSE
Pesticide1021,23165-19-7,tiaojiean,FALSE
Pesticide1022,23184-66-9,butachlor,FALSE
Pesticide1023,23192-42-9,hexalure,FALSE
Pesticide1024,23400-52-4,megatomoic acid,FALSE
Pesticide1025,23422-53-9,formetanate hydrochloride,FALSE
Pesticide1026,23505-41-1,pirimiphos-ethyl,FALSE
Pesticide1027,23526-02-5,thuringiensin,FALSE
Pesticide1028,23560-59-0,heptenophos,FALSE
Pesticide1029,23564-05-8,thiophanate-methyl,FALSE
Pesticide1030,23564-06-9,thiophanate,FALSE
Pesticide1031,23576-23-0,metflurazon,FALSE
Pesticide1032,23593-75-1,clotrimazole,FALSE
Pesticide1033,23947-60-6,ethirimol,FALSE
Pesticide1034,23950-58-5,propyzamide,FALSE
Pesticide1035,24017-47-8,triazophos,FALSE
Pesticide1036,24019-05-4,sulcofuron,FALSE
Pesticide1037,24096-53-5,dimetachlone,FALSE
Pesticide1038,24151-93-7,piperophos,FALSE
Pesticide1039,24201-58-9,dichlozoline,FALSE
Pesticide1040,24307-26-4,mepiquat chloride,FALSE
Pesticide1041,24353-58-0,delachlor,FALSE
Pesticide1042,24353-61-5,isocarbophos,FALSE
Pesticide1043,24539-66-0,chlorfluren,FALSE
Pesticide1044,24579-73-5,propamocarb,FALSE
Pesticide1045,24602-86-6,tridemorph,TRUE
Pesticide1046,24624-58-6,pyresmethrin,FALSE
Pesticide1047,24691-76-7,pyracarbolid,FALSE
Pesticide1048,24691-80-3,fenfuram,FALSE
Pesticide1049,24934-91-6,chlormephos,FALSE
Pesticide1050,25057-89-0,bentazone,FALSE
Pesticide1051,25059-78-3,dicamba-diolamine,FALSE
Pesticide1052,25059-80-7,benazolin-ethyl,FALSE
Pesticide1053,25168-15-4,"2,4,5-T-isoctyl",FALSE
Pesticide1054,25168-26-7,"2,4-D-isoctyl",FALSE
Pesticide1055,25171-63-5,thiocarboxime,FALSE
Pesticide1056,25182-03-0,chloramben-methylammonium,FALSE
Pesticide1057,25311-71-1,isofenphos,FALSE
Pesticide1058,25312-34-9,latilure,FALSE
Pesticide1059,25316-56-7,oxapyrazon-sodium,FALSE
Pesticide1060,25316-57-8,oxapyrazon-dimolamine,FALSE
Pesticide1061,25319-90-8,MCPA-thioethyl,FALSE
Pesticide1062,25366-23-8,thiazafluron,FALSE
Pesticide1063,25402-06-6,cinerin I,FALSE
Pesticide1064,25475-73-4,flumezin,FALSE
Pesticide1065,25537-26-2,fenoprop-terboxyl,FALSE
Pesticide1066,25545-89-5,ammonium 1-naphthaleneacetate,FALSE
Pesticide1067,25550-58-7,dinitrophenols,FALSE
Pesticide1068,25601-84-7,methocrotophos,FALSE
Pesticide1069,25606-41-1,propamocarb hydrochloride,FALSE
Pesticide1070,25671-45-8,iodobonil,FALSE
Pesticide1071,25671-46-9,bromobonil,FALSE
Pesticide1072,25954-13-6,fosamine-ammonium,FALSE
Pesticide1073,25991-86-0,carboxide,FALSE
Pesticide1074,26002-80-2,phenothrin,FALSE
Pesticide1075,26087-47-8,iprobenfos,FALSE
Pesticide1076,26129-32-8,clofop,FALSE
Pesticide1077,26225-79-6,ethofumesate,FALSE
Pesticide1078,26259-45-0,secbumeton,FALSE
Pesticide1079,26342-66-5,rhodojaponin-III,FALSE
Pesticide1080,26389-78-6,chlornidine,FALSE
Pesticide1081,26399-36-0,profluralin,FALSE
Pesticide1082,26419-73-8,tirpate,FALSE
Pesticide1083,26530-20-1,octhilinone,FALSE
Pesticide1084,26532-95-6,ostramone,FALSE
Pesticide1085,26544-20-7,MCPA-isoctyl,FALSE
Pesticide1086,26628-22-8,sodium azide,FALSE
Pesticide1087,26644-46-2,triforine,FALSE
Pesticide1088,26761-52-4,thiocyanatodinitrobenzenes,FALSE
Pesticide1089,26766-27-8,triarimol,FALSE
Pesticide1090,26952-20-5,picloram-isoctyl,FALSE
Pesticide1091,27050-41-5,clenpirin,FALSE
Pesticide1092,27223-49-0,proparthrin,FALSE
Pesticide1093,27314-13-2,norflurazon,FALSE
Pesticide1094,27355-22-2,phthalide,FALSE
Pesticide1095,27386-64-7,mecarbinzid,FALSE
Pesticide1096,27512-72-7,ethychlozate,FALSE
Pesticide1097,27519-02-4,muscalure,FALSE
Pesticide1098,27541-88-4,quinonamid,FALSE
Pesticide1099,27605-76-1,probenazole,FALSE
Pesticide1100,27954-37-6,tetrafluron,FALSE
Pesticide1101,28079-04-1,orfralure,FALSE
Pesticide1102,28086-13-7,phenylmercury salicylate,FALSE
Pesticide1103,28159-98-0,cybutryne,FALSE
Pesticide1104,28217-97-2,chloromethiuron,FALSE
Pesticide1105,28249-77-6,thiobencarb,FALSE
Pesticide1106,28260-63-1,trichlorotrinitrobenzenes,FALSE
Pesticide1107,28288-05-3,butethrin,FALSE
Pesticide1108,28401-39-0,frontalin,FALSE
Pesticide1109,28434-00-6,esdépalléthrine,FALSE
Pesticide1110,28434-01-7,bioresmethrin,FALSE
Pesticide1111,28473-03-2,mecoprop-isoctyl,FALSE
Pesticide1112,28559-00-4,cypendazole,FALSE
Pesticide1113,28562-70-1,furcarbanil,FALSE
Pesticide1114,28631-35-8,dichlorprop-isoctyl,FALSE
Pesticide1115,28685-18-9,"2,4-D-tetradecylammonium",FALSE
Pesticide1116,28730-17-8,methfuroxam,FALSE
Pesticide1117,28772-56-7,bromadiolone,TRUE
Pesticide1118,28805-78-9,isonoruron,FALSE
Pesticide1119,28956-64-1,bentaluron,FALSE
Pesticide1120,29025-67-0,silatrane,FALSE
Pesticide1121,29091-05-2,dinitramine,FALSE
Pesticide1122,29091-21-2,prodiamine,FALSE
Pesticide1123,29104-30-1,benzoximate,FALSE
Pesticide1124,29110-22-3,dalapon-magnesium,FALSE
Pesticide1125,29173-31-7,mecarphon,FALSE
Pesticide1126,29232-93-7,pirimiphos-methyl,FALSE
Pesticide1127,29450-45-1,MCPA-etexyl,FALSE
Pesticide1128,29547-00-0,thiosultap-monosodium,FALSE
Pesticide1129,29672-19-3,nitrilacarb,FALSE
Pesticide1130,29804-22-6,disparlure,FALSE
Pesticide1131,29973-13-5,ethiofencarb,FALSE
Pesticide1132,30043-49-3,ethidimuron,FALSE
Pesticide1133,30043-55-1,buthiuron,FALSE
Pesticide1134,30087-47-9,fenethacarb,FALSE
Pesticide1135,30143-22-7,zinc trichlorophenate,FALSE
Pesticide1136,30182-24-2,iprymidam,FALSE
Pesticide1137,30560-19-1,acephate,FALSE
Pesticide1138,30979-48-7,isocarbamid,FALSE
Pesticide1139,31218-83-4,propetamphos,FALSE
Pesticide1140,31251-03-3,fluotrimazole,FALSE
Pesticide1141,31377-69-2,pirimetaphos,FALSE
Pesticide1142,31717-87-0,dodemorph acetate,FALSE
Pesticide1143,31848-11-0,carbamorph,FALSE
Pesticide1144,31895-21-3,thiocyclam,FALSE
Pesticide1145,31895-22-4,thiocyclam oxalate,FALSE
Pesticide1146,32341-80-3,"2,4-D-tripromine",FALSE
Pesticide1147,32345-29-2,dietholate,FALSE
Pesticide1148,32351-70-5,mecoprop-dimethylammonium,FALSE
Pesticide1149,32534-95-5,fenoprop-isoctyl,FALSE
Pesticide1150,32791-87-0,cloxyfonac-sodium,FALSE
Pesticide1151,32809-16-8,procymidone,FALSE
Pesticide1152,32861-85-1,chlomethoxyfen,FALSE
Pesticide1153,32889-48-8,procyazine,FALSE
Pesticide1154,33089-61-1,amitraz,FALSE
Pesticide1155,33089-74-6,semiamitraz,FALSE
Pesticide1156,33245-39-5,fluchloralin,FALSE
Pesticide1157,33399-00-7,bromfenvinfos,FALSE
Pesticide1158,33439-45-1,fluothiuron,FALSE
Pesticide1159,33576-92-0,jiajizengxiaolin,FALSE
Pesticide1160,33586-66-2,imazalil nitrate,FALSE
Pesticide1161,33629-47-9,butralin,FALSE
Pesticide1162,33693-04-8,terbumeton,FALSE
Pesticide1163,33813-20-6,etem,FALSE
Pesticide1164,33820-53-0,isopropalin,FALSE
Pesticide1165,33857-23-7,amiprophos,FALSE
Pesticide1166,33956-49-9,codlelure,FALSE
Pesticide1167,33956-61-5,tetranactin,FALSE
Pesticide1168,34014-18-1,tebuthiuron,FALSE
Pesticide1169,34123-59-6,isoproturon,FALSE
Pesticide1170,34205-21-5,dimefuron,FALSE
Pesticide1171,34218-61-6,juvenile hormone II,FALSE
Pesticide1172,34256-82-1,acetochlor,FALSE
Pesticide1173,34264-24-9,promacyl,FALSE
Pesticide1174,34388-29-9,methothrin,FALSE
Pesticide1175,34462-96-9,halacrinate,FALSE
Pesticide1176,34484-77-0,cisanilide,FALSE
Pesticide1177,34494-04-7,glyphosate-dimethylammonium,FALSE
Pesticide1178,34622-58-7,orbencarb,FALSE
Pesticide1179,34643-46-4,prothiofos,FALSE
Pesticide1180,34681-10-2,butocarboxim,FALSE
Pesticide1181,34681-23-7,butoxycarboxim,FALSE
Pesticide1182,34849-42-8,cyclafuramid,FALSE
Pesticide1183,35040-03-0,dinoseb-sodium,FALSE
Pesticide1184,35256-85-0,tebutam,FALSE
Pesticide1185,35256-86-1,benzipram,FALSE
Pesticide1186,35367-31-8,penfluron,FALSE
Pesticide1187,35367-38-5,diflubenzuron,FALSE
Pesticide1188,35400-43-2,sulprofos,FALSE
Pesticide1189,35409-97-3,dichlorbenzuron,FALSE
Pesticide1190,35452-92-7,formparanate hydrochloride,FALSE
Pesticide1191,35554-44-0,imazalil,FALSE
Pesticide1192,35575-96-3,azamethiphos,FALSE
Pesticide1193,35597-43-4,bilanafos,FALSE
Pesticide1194,35597-44-5,glufosinate-P,FALSE
Pesticide1195,35628-00-3,ipsdienol,FALSE
Pesticide1196,35628-05-8,ipsenol,FALSE
Pesticide1197,35691-65-7,bromothalonil,FALSE
Pesticide1198,35764-59-1,cismethrin,FALSE
Pesticide1199,35832-11-2,picloram-triethylammonium,FALSE
Pesticide1200,36001-88-4,amiprofos-methyl,FALSE
Pesticide1201,36145-08-1,chlorprazophos,FALSE
Pesticide1202,36335-67-8,butamifos,FALSE
Pesticide1203,36374-99-9,picloram-etexyl,FALSE
Pesticide1204,36519-00-3,phosdiphen,FALSE
Pesticide1205,36614-38-7,isothioate,FALSE
Pesticide1206,36734-19-7,iprodione,FALSE
Pesticide1207,36756-79-3,tiocarbazil,FALSE
Pesticide1208,36791-04-5,ribavirin,FALSE
Pesticide1209,37032-15-8,sophamide,FALSE
Pesticide1210,37102-63-9,"2,4-D-heptylammonium",FALSE
Pesticide1211,37199-66-9,potassium polysulfide,FALSE
Pesticide1212,37248-47-8,validamycin,FALSE
Pesticide1213,37407-77-5,chloromebuform,FALSE
Pesticide1214,37764-25-3,dichlormid,FALSE
Pesticide1215,37893-02-0,flubenzimine,FALSE
Pesticide1216,37894-46-5,etacelasil,FALSE
Pesticide1217,37924-13-3,perfluidone,FALSE
Pesticide1218,38083-17-9,climbazole,FALSE
Pesticide1219,38260-54-7,etrimfos,FALSE
Pesticide1220,38260-63-8,lirimfos,FALSE
Pesticide1221,38524-82-2,trifenofos,FALSE
Pesticide1222,38527-91-2,etaphos,FALSE
Pesticide1223,38561-76-1,benazolin-dimethylammonium,FALSE
Pesticide1224,38641-94-0,glyphosate-isopropylammonium,FALSE
Pesticide1225,38725-95-0,diethatyl,FALSE
Pesticide1226,38727-55-8,diethatyl-ethyl,FALSE
Pesticide1227,38748-32-2,triptolide,FALSE
Pesticide1228,39104-30-8,dichlorprop-sodium,FALSE
Pesticide1229,39148-24-8,fosetyl-aluminium,FALSE
Pesticide1230,39196-18-4,thiofanox,FALSE
Pesticide1231,39247-96-6,primidophos,FALSE
Pesticide1232,39300-45-3,dinocap,FALSE
Pesticide1233,39515-40-7,cyphenothrin,FALSE
Pesticide1234,39515-41-8,fenpropathrin,FALSE
Pesticide1235,39589-98-5,dimethyl carbate,FALSE
Pesticide1236,39600-42-5,glyphosate-potassium,FALSE
Pesticide1237,39680-90-5,metam-ammonium,FALSE
Pesticide1238,39794-99-5,cyperquat chloride,FALSE
Pesticide1239,39807-15-3,oxadiargyl,FALSE
Pesticide1240,39985-63-2,chlorphthalim,FALSE
Pesticide1241,40020-01-7,pyridafol,FALSE
Pesticide1242,40085-57-2,tazimcarb,FALSE
Pesticide1243,40164-67-8,amidochlor,FALSE
Pesticide1244,40341-04-6,rabenzazole,FALSE
Pesticide1245,40465-66-5,glyphosate-monoammonium,FALSE
Pesticide1246,40487-42-1,pendimethalin,FALSE
Pesticide1247,40596-69-8,methoprene,FALSE
Pesticide1248,40596-80-3,triprene,FALSE
Pesticide1249,40626-35-5,heterophos,FALSE
Pesticide1250,40843-25-2,diclofop,FALSE
Pesticide1251,41083-11-8,azocyclotin,FALSE
Pesticide1252,41096-46-2,hydroprene,FALSE
Pesticide1253,41198-08-7,profenofos,FALSE
Pesticide1254,41205-21-4,fluoroimide,FALSE
Pesticide1255,41219-31-2,dithicrofos,FALSE
Pesticide1256,41219-32-3,thicrofos,FALSE
Pesticide1257,41295-28-7,methoxyphenone,FALSE
Pesticide1258,41394-05-2,metamitron,FALSE
Pesticide1259,41483-43-6,bupirimate,FALSE
Pesticide1260,41495-67-4,hexylthiofos,FALSE
Pesticide1261,41643-35-0,napropamide-M,FALSE
Pesticide1262,41814-78-2,tricyclazole,FALSE
Pesticide1263,42089-03-2,cyprazole,FALSE
Pesticide1264,42459-68-7,MCPA-trolamine,FALSE
Pesticide1265,42509-80-8,isazofos,FALSE
Pesticide1266,42576-02-3,bifenox,FALSE
Pesticide1267,42588-37-4,kinoprene,FALSE
Pesticide1268,42609-52-9,daimuron,FALSE
Pesticide1269,42609-73-4,methyldymron,FALSE
Pesticide1270,42721-99-3,diphacinone-sodium,FALSE
Pesticide1271,42789-03-7,bromethrin,FALSE
Pesticide1272,42873-80-3,dofenapyn,FALSE
Pesticide1273,42874-01-1,nitrofluorfen,FALSE
Pesticide1274,42874-03-3,oxyfluorfen,FALSE
Pesticide1275,43121-43-3,triadimefon,FALSE
Pesticide1276,43222-48-6,difenzoquat metilsulfate,FALSE
Pesticide1277,47000-92-0,fluoridamid,FALSE
Pesticide1278,48134-75-4,cyperquat,FALSE
Pesticide1279,49669-74-1,aviglycine,FALSE
Pesticide1280,49828-75-3,phenproxide,FALSE
Pesticide1281,49866-87-7,difenzoquat,FALSE
Pesticide1282,50398-69-1,colophonate,FALSE
Pesticide1283,50471-44-8,vinclozolin,FALSE
Pesticide1284,50512-35-1,isoprothiolane,FALSE
Pesticide1285,50563-36-5,dimethachlor,FALSE
Pesticide1286,50594-66-6,acifluorfen,FALSE
Pesticide1287,50594-67-7,acifluorfen-methyl,FALSE
Pesticide1288,50723-80-3,bentazone-sodium,FALSE
Pesticide1289,50864-67-0,barium polysulfide,FALSE
Pesticide1290,50933-33-0,gossyplure,FALSE
Pesticide1291,51068-60-1,sulglycapin,FALSE
Pesticide1292,51173-63-8,"2,4-D-methylammonium",FALSE
Pesticide1293,51218-45-2,metolachlor,FALSE
Pesticide1294,51218-49-6,pretilachlor,FALSE
Pesticide1295,51235-04-2,hexazinone,FALSE
Pesticide1296,51249-05-9,buminafos,FALSE
Pesticide1297,51276-47-2,glufosinate,FALSE
Pesticide1298,51308-54-4,buthiobate,FALSE
Pesticide1299,51337-71-4,clofop-isobutyl,FALSE
Pesticide1300,51338-27-3,diclofop-methyl,FALSE
Pesticide1301,51487-69-5,cloethocarb,FALSE
Pesticide1302,51528-03-1,prosulfalin,FALSE
Pesticide1303,51550-40-4,semiamitraz chloride,FALSE
Pesticide1304,51594-83-3,mieshuan,FALSE
Pesticide1305,51596-10-2,milbemectin,TRUE
Pesticide1306,51596-11-3,milbemectin,TRUE
Pesticide1307,51630-33-2,valerate,FALSE
Pesticide1308,51630-58-1,fenvalerate,FALSE
Pesticide1309,51707-55-2,thidiazuron,FALSE
Pesticide1310,51877-74-8,biopermethrin,FALSE
Pesticide1311,52207-48-4,thiosultap-disodium,FALSE
Pesticide1312,52304-36-6,quwenzhi,FALSE
Pesticide1313,52315-07-8,cypermethrin,FALSE
Pesticide1314,52341-32-9,transpermethrin,FALSE
Pesticide1315,52508-35-7,dikegulac-sodium,FALSE
Pesticide1316,52570-16-8,naproanilide,FALSE
Pesticide1317,52645-53-1,permethrin,FALSE
Pesticide1318,52756-22-6,flamprop-isopropyl,FALSE
Pesticide1319,52756-25-9,flamprop-methyl,FALSE
Pesticide1320,52888-80-9,prosulfocarb,FALSE
Pesticide1321,52918-63-5,deltamethrin,FALSE
Pesticide1322,53112-28-0,pyrimethanil,FALSE
Pesticide1323,53404-16-3,chloramben-diolamine,FALSE
Pesticide1324,53404-19-6,bromacil-lithium,FALSE
Pesticide1325,53404-23-2,4-CPA-diolamine,FALSE
Pesticide1326,53404-28-7,dicamba-olamine,FALSE
Pesticide1327,53404-29-8,dicamba-trolamine,FALSE
Pesticide1328,53404-31-2,dichlorprop-butotyl,FALSE
Pesticide1329,53404-32-3,dichlorprop-dimethylammonium,FALSE
Pesticide1330,53404-43-6,dinoseb-diolamine,FALSE
Pesticide1331,53404-60-7,dazomet-sodium,FALSE
Pesticide1332,53404-61-8,mecoprop-trolamine,FALSE
Pesticide1333,53404-90-3,chlorfenac-ammonium,FALSE
Pesticide1334,53558-25-1,pyrinuron,FALSE
Pesticide1335,53606-78-3,dalapon-calcium,FALSE
Pesticide1336,53780-34-0,mefluidide,FALSE
Pesticide1337,53780-36-2,mefluidide-diolamine,FALSE
Pesticide1338,53878-17-4,furophanate,FALSE
Pesticide1339,53988-93-5,mancopper,FALSE
Pesticide1340,54091-06-4,BPCMS,FALSE
Pesticide1341,54406-48-3,empenthrin,FALSE
Pesticide1342,54407-47-5,chlorempenthrin,FALSE
Pesticide1343,54460-46-7,cycloprate,FALSE
Pesticide1344,54593-83-8,chlorethoxyfos,FALSE
Pesticide1345,54864-61-8,myclozolin,FALSE
Pesticide1346,54910-51-9,disparlure,TRUE
Pesticide1347,54965-21-8,albendazole,FALSE
Pesticide1348,55179-31-2,bitertanol,FALSE
Pesticide1349,55219-65-3,triadimenol,FALSE
Pesticide1350,55283-68-6,ethalfluralin,FALSE
Pesticide1351,55283-69-7,isopyrimol,FALSE
Pesticide1352,55285-14-8,carbosulfan,FALSE
Pesticide1353,55290-64-7,dimethipin,FALSE
Pesticide1354,55335-06-3,triclopyr,FALSE
Pesticide1355,55406-53-6,iodocarb,FALSE
Pesticide1356,55511-98-3,buthidazole,FALSE
Pesticide1357,55512-33-9,pyridate,FALSE
Pesticide1358,55632-67-2,Cheshunt mixture,FALSE
Pesticide1359,55634-91-8,alloxydim,FALSE
Pesticide1360,55635-13-7,alloxydim-sodium,FALSE
Pesticide1361,55720-26-8,aviglycine hydrochloride,FALSE
Pesticide1362,55807-46-0,monisouron,FALSE
Pesticide1363,55808-13-4,carboxazole,FALSE
Pesticide1364,55814-41-0,mepronil,FALSE
Pesticide1365,55861-78-4,isouron,FALSE
Pesticide1366,55870-98-9,picloram-dimethylammonium,FALSE
Pesticide1367,55871-00-6,picloram-olamine,FALSE
Pesticide1368,55871-02-8,dicamba-isopropylammonium,FALSE
Pesticide1369,55996-32-2,pirimioxyphos,FALSE
Pesticide1370,56073-07-5,difenacoum,FALSE
Pesticide1371,56073-10-0,brodifacoum,FALSE
Pesticide1372,56141-00-5,cambendichlor,FALSE
Pesticide1373,56196-53-3,oryctalure,FALSE
Pesticide1374,56425-91-3,flurprimidol,FALSE
Pesticide1375,56634-95-8,bromoxynil heptanoate,FALSE
Pesticide1376,56716-21-3,hyquincarb,FALSE
Pesticide1377,56717-11-4,piproctanyl bromide,FALSE
Pesticide1378,57018-04-9,tolclofos-methyl,FALSE
Pesticide1379,57052-04-7,isomethiozin,FALSE
Pesticide1380,57130-91-3,quinacetol,FALSE
Pesticide1381,57153-17-0,dichlorprop-methyl,FALSE
Pesticide1382,57153-18-1,MCPB-methyl,FALSE
Pesticide1383,57160-47-1,chlorbenzuron,FALSE
Pesticide1384,57213-69-1,triclopyr-triethylammonium,FALSE
Pesticide1385,57342-02-6,epofenonane,FALSE
Pesticide1386,57369-32-1,pyroquilon,FALSE
Pesticide1387,57375-63-0,phenisopham,FALSE
Pesticide1388,57413-95-3,xinjunan,FALSE
Pesticide1389,57520-17-9,iminoctadine triacetate,FALSE
Pesticide1390,57646-30-7,furalaxyl,FALSE
Pesticide1391,57754-85-5,clopyralid-olamine,FALSE
Pesticide1392,57801-46-4,methalpropalin,FALSE
Pesticide1393,57808-65-8,closantel,FALSE
Pesticide1394,57837-19-1,metalaxyl,FALSE
Pesticide1395,57960-19-7,acequinocyl,FALSE
Pesticide1396,57966-95-7,cymoxanil,FALSE
Pesticide1397,58011-68-0,pyrazolynate,FALSE
Pesticide1398,58138-08-2,tridiphane,FALSE
Pesticide1399,58481-70-2,dicresyl,FALSE
Pesticide1400,58509-83-4,clopyralid-potassium,FALSE
Pesticide1401,58594-72-2,imazalil sulfate,FALSE
Pesticide1402,58594-74-4,trifop,FALSE
Pesticide1403,58594-77-7,trifop-methyl,FALSE
Pesticide1404,58667-63-3,flamprop,FALSE
Pesticide1405,58769-20-3,kadethrin,FALSE
Pesticide1406,58810-48-3,ofurace,FALSE
Pesticide1407,58842-20-9,nithiazine,FALSE
Pesticide1408,59014-03-8,a-multistriatin,FALSE
Pesticide1409,59026-08-3,epronaz,FALSE
Pesticide1410,59079-49-1,dodicin-sodium,FALSE
Pesticide1411,59145-63-0,dodemorph benzoate,FALSE
Pesticide1412,59604-11-4,chlorfenprop,FALSE
Pesticide1413,59669-26-0,thiodicarb,FALSE
Pesticide1414,59682-52-9,fosamine,FALSE
Pesticide1415,59756-60-4,fluridone,FALSE
Pesticide1416,60074-25-1,chlorazifop,FALSE
Pesticide1417,60168-88-9,fenarimol,FALSE
Pesticide1418,60207-31-0,azaconazole,FALSE
Pesticide1419,60207-90-1,propiconazole,FALSE
Pesticide1420,60207-93-4,etaconazole,FALSE
Pesticide1421,60238-56-4,chlorthiophos,FALSE
Pesticide1422,60254-65-1,oxamate,FALSE
Pesticide1423,60568-05-0,furmecyclox,FALSE
Pesticide1424,60589-06-2,metoxadiazone,FALSE
Pesticide1425,60799-74-8,litlure,FALSE
Pesticide1426,60825-27-6,triclopyr-ethyl,FALSE
Pesticide1427,61019-78-1,fenapanil,FALSE
Pesticide1428,61213-25-0,flurochloridone,FALSE
Pesticide1429,61432-55-1,dimepiperate,FALSE
Pesticide1430,61444-62-0,nifluridide,FALSE
Pesticide1431,61566-21-0,quinazamid,FALSE
Pesticide1432,61614-62-8,dinofenate,FALSE
Pesticide1433,61676-87-7,cymiazole,FALSE
Pesticide1434,61790-53-2,diatomaceous earth,FALSE
Pesticide1435,62303-19-9,saijunmao,FALSE
Pesticide1436,62441-54-7,fentrifanil,FALSE
Pesticide1437,62476-59-9,acifluorfen-sodium,FALSE
Pesticide1438,62610-77-9,methacrifos,FALSE
Pesticide1439,62732-91-6,debacarb,FALSE
Pesticide1440,62850-32-2,fenothiocarb,FALSE
Pesticide1441,62865-36-5,diclomezine,FALSE
Pesticide1442,62902-57-2,diclomezine-sodium,FALSE
Pesticide1443,62924-70-3,flumetralin,FALSE
Pesticide1444,63114-77-2,xylachlor,FALSE
Pesticide1445,63278-44-4,aureofungin,TRUE
Pesticide1446,63278-45-5,aureofungin,TRUE
Pesticide1447,63284-71-9,nuarimol,FALSE
Pesticide1448,63333-35-7,bromethalin,FALSE
Pesticide1449,63729-98-6,flamprop-M-methyl,FALSE
Pesticide1450,63755-05-5,chlobenthiazone,FALSE
Pesticide1451,63771-69-7,zolaprofos,FALSE
Pesticide1452,63782-90-1,flamprop-M-isopropyl,FALSE
Pesticide1453,63837-33-2,diofenolan,FALSE
Pesticide1454,63935-38-6,cycloprothrin,FALSE
Pesticide1455,63935-38-6,cycloprothrin,FALSE
Pesticide1456,64249-01-0,anilofos,FALSE
Pesticide1457,64309-03-1,rescalure,FALSE
Pesticide1458,64440-88-6,polycarbamate,FALSE
Pesticide1459,64529-56-2,ethiozin,FALSE
Pesticide1460,64628-44-0,triflumuron,FALSE
Pesticide1461,64700-56-7,triclopyr-butotyl,FALSE
Pesticide1462,64726-91-6,japonilure,FALSE
Pesticide1463,64902-72-3,chlorsulfuron,FALSE
Pesticide1464,65035-34-9,lineatin,FALSE
Pesticide1465,65202-07-5,DCPTA,FALSE
Pesticide1466,65295-49-0,brofenvalerate,FALSE
Pesticide1467,65383-73-5,precocene III,FALSE
Pesticide1468,65400-98-8,fenoxacrim,FALSE
Pesticide1469,65691-00-1,triarathene,FALSE
Pesticide1470,65731-84-2,beta-cypermethrin,FALSE
Pesticide1471,65733-16-6,methoprene,TRUE
Pesticide1472,65733-18-8,hydroprene,TRUE
Pesticide1473,65733-20-2,kinoprene,TRUE
Pesticide1474,65907-30-4,furathiocarb,FALSE
Pesticide1475,65934-95-4,fenitropan,FALSE
Pesticide1476,66063-05-6,pencycuron,FALSE
Pesticide1477,66215-27-8,cyromazine,FALSE
Pesticide1478,66230-04-4,esfenvalerate,FALSE
Pesticide1479,66246-88-6,penconazole,FALSE
Pesticide1480,66332-96-5,flutolanil,FALSE
Pesticide1481,66423-05-0,mecoprop-P-potassium,FALSE
Pesticide1482,66423-09-4,mecoprop-P-dimethylammonium,FALSE
Pesticide1483,66441-11-0,fenthiaprop-ethyl,FALSE
Pesticide1484,66441-23-4,fenoxaprop-ethyl,FALSE
Pesticide1485,66602-87-7,isamidofos,FALSE
Pesticide1486,66841-25-6,tralomethrin,FALSE
Pesticide1487,66841-26-7,tralocythrin,FALSE
Pesticide1488,66952-49-6,methasulfocarb,FALSE
Pesticide1489,67129-08-2,metazachlor,FALSE
Pesticide1490,67306-00-7,fenpropidin,FALSE
Pesticide1491,67338-65-2,benazolin-potassium,FALSE
Pesticide1492,67375-30-8,alpha-cypermethrin,FALSE
Pesticide1493,67433-96-9,4-CPA-potassium,FALSE
Pesticide1494,67485-29-4,hydramethylnon,FALSE
Pesticide1495,67564-91-4,fenpropimorph,FALSE
Pesticide1496,67628-93-7,dimethylvinphos,FALSE
Pesticide1497,67747-09-5,prochloraz,FALSE
Pesticide1498,67932-85-8,vangard,FALSE
Pesticide1499,68049-83-2,azafenidin,FALSE
Pesticide1500,68085-85-8,cyhalothrin,FALSE
Pesticide1501,68157-60-8,forchlorfenuron,FALSE
Pesticide1502,68228-19-3,eglinazine,FALSE
Pesticide1503,68228-18-2,proglinazine-ethyl,FALSE
Pesticide1504,68228-20-6,proglinazine,FALSE
Pesticide1505,68254-10-4,fenridazon,FALSE
Pesticide1506,68359-37-5,cyfluthrin,FALSE
Pesticide1507,68505-69-1,benfuresate,FALSE
Pesticide1508,68523-18-2,fenpirithrin,FALSE
Pesticide1509,68672-17-3,benzofluor,FALSE
Pesticide1510,68694-11-1,triflumizole,FALSE
Pesticide1511,68925-41-7,tioclorim,FALSE
Pesticide1512,69148-12-5,cliodinate,FALSE
Pesticide1513,69192-23-0,prochloraz-manganese,FALSE
Pesticide1514,69254-40-6,glyphosate-diammonium,FALSE
Pesticide1515,69309-47-3,piproctanyl,FALSE
Pesticide1516,69327-76-0,buprofezin,FALSE
Pesticide1517,69335-90-6,fluazifop-methyl,FALSE
Pesticide1518,69335-91-7,fluazifop,FALSE
Pesticide1519,69377-81-7,fluroxypyr,FALSE
Pesticide1520,69409-94-5,fluvalinate,FALSE
Pesticide1521,69484-12-4,bromacil-sodium,FALSE
Pesticide1522,69581-33-5,cyprofuram,FALSE
Pesticide1523,69618-84-4,medimeform,FALSE
Pesticide1524,69622-79-3,dichlorflurenol,FALSE
Pesticide1525,69770-45-2,flumethrin,FALSE
Pesticide1526,69806-34-4,haloxyfop,FALSE
Pesticide1527,69806-40-2,haloxyfop-methyl,FALSE
Pesticide1528,69806-50-4,fluazifop-butyl,FALSE
Pesticide1529,69806-86-6,haloxyfop-sodium,FALSE
Pesticide1530,70017-93-5,isovaledione,FALSE
Pesticide1531,70033-13-5,glufosinate-P-sodium,FALSE
Pesticide1532,70161-11-4,ivermectin,TRUE
Pesticide1533,70166-48-2,pyroxyfur,FALSE
Pesticide1534,70193-21-4,trichlamide,FALSE
Pesticide1535,70209-81-3,ivermectin,TRUE
Pesticide1536,70288-86-7,ivermectin,FALSE
Pesticide1537,70393-85-0,glyphosate-sesquisodium,FALSE
Pesticide1538,70563-58-5,herbimycin,FALSE
Pesticide1539,70630-17-0,metalaxyl-M,FALSE
Pesticide1540,70751-94-9,tioxymid,FALSE
Pesticide1541,71048-99-2,bilanafos-sodium,FALSE
Pesticide1542,71101-05-8,difenopenten-ethyl,FALSE
Pesticide1543,71283-80-2,fenoxaprop-P-ethyl,FALSE
Pesticide1544,71422-67-8,chlorfluazuron,FALSE
Pesticide1545,71526-69-7,mecoprop-etexyl,FALSE
Pesticide1546,71561-11-0,pyrazoxyfen,FALSE
Pesticide1547,71626-11-4,benalaxyl,FALSE
Pesticide1548,71697-59-1,theta-cypermethrin,FALSE
Pesticide1549,71750-37-3,"2,3,6-TBA-lithium",FALSE
Pesticide1550,71751-41-2,abamectin,FALSE
Pesticide1551,72131-76-1,trifopsime,FALSE
Pesticide1552,72178-02-0,fomesafen,FALSE
Pesticide1553,72459-58-6,triazoxide,FALSE
Pesticide1554,72490-01-8,fenoxycarb,FALSE
Pesticide1555,72619-32-0,haloxyfop-P-methyl,FALSE
Pesticide1556,72850-64-7,flurazole,FALSE
Pesticide1557,72880-52-5,chlorazifop-propargyl,FALSE
Pesticide1558,72962-43-7,brassinolide,FALSE
Pesticide1559,72963-72-5,imiprothrin,FALSE
Pesticide1560,73250-68-7,mefenacet,FALSE
Pesticide1561,73455-09-1,clopyralid-tripromine,FALSE
Pesticide1562,73519-50-3,fenthiaprop,FALSE
Pesticide1563,73777-50-1,glufosinate-P-ammonium,FALSE
Pesticide1564,73886-28-9,heptopargil,FALSE
Pesticide1565,74051-80-2,sethoxydim,FALSE
Pesticide1566,74070-46-5,aclonifen,FALSE
Pesticide1567,74115-24-5,clofentezine,FALSE
Pesticide1568,74174-44-0,brassinolide-ethyl,FALSE
Pesticide1569,74222-97-2,sulfometuron-methyl,FALSE
Pesticide1570,74223-56-6,sulfometuron,FALSE
Pesticide1571,74223-64-6,metsulfuron-methyl,FALSE
Pesticide1572,74712-19-9,bromobutide,FALSE
Pesticide1573,74738-17-3,fenpiclonil,FALSE
Pesticide1574,75736-33-3,diclobutrazol,FALSE
Pesticide1575,75867-00-4,fenfluthrin,FALSE
Pesticide1576,76120-02-0,etnipromid,TRUE
Pesticide1577,76120-22-4,etnipromid,FALSE
Pesticide1578,76280-91-6,tecloftalam,FALSE
Pesticide1579,76578-12-6,quizalofop,FALSE
Pesticide1580,76578-14-8,quizalofop-ethyl,FALSE
Pesticide1581,76608-88-3,triapenthenol,FALSE
Pesticide1582,76636-10-7,amibuzin,FALSE
Pesticide1583,76674-21-0,flutriafol,FALSE
Pesticide1584,76738-62-0,paclobutrazol,FALSE
Pesticide1585,77182-82-2,glufosinate-ammonium,FALSE
Pesticide1586,77227-69-1,halosafen,FALSE
Pesticide1587,77458-01-6,pyraclofos,FALSE
Pesticide1588,77501-60-1,fluoroglycofen,FALSE
Pesticide1589,77501-63-4,lactofen,FALSE
Pesticide1590,77501-90-7,fluoroglycofen-ethyl,FALSE
Pesticide1591,77503-28-7,chlorthiophos,TRUE
Pesticide1592,77503-29-8,chlorthiophos,TRUE
Pesticide1593,77732-09-3,oxadixyl,FALSE
Pesticide1594,77768-58-2,thiapronil,FALSE
Pesticide1595,77788-21-7,tetcyclacis,FALSE
Pesticide1596,78168-93-1,ametridione,FALSE
Pesticide1597,78357-48-9,fenasulam,FALSE
Pesticide1598,78370-21-5,cyometrinil,FALSE
Pesticide1599,78587-05-0,hexythiazox,FALSE
Pesticide1600,78778-15-1,fenridazon-propyl,FALSE
Pesticide1601,78863-62-4,flufenican,FALSE
Pesticide1602,79127-80-3,fenoxycarb,FALSE
Pesticide1603,79241-46-6,fluazifop-P-butyl,FALSE
Pesticide1604,79260-71-2,dicyclonon,FALSE
Pesticide1605,79270-78-3,dichlorprop-etexyl,FALSE
Pesticide1606,79277-27-3,thifensulfuron-methyl,FALSE
Pesticide1607,79277-67-1,thifensulfuron,FALSE
Pesticide1608,79302-84-4,pentmethrin,FALSE
Pesticide1609,79319-85-0,bismerthiazol,FALSE
Pesticide1610,79510-48-8,metsulfuron,FALSE
Pesticide1611,79538-32-2,tefluthrin,FALSE
Pesticide1612,79540-50-4,etobenzanid,FALSE
Pesticide1613,79622-59-6,fluazinam,FALSE
Pesticide1614,79983-71-4,hexaconazole,FALSE
Pesticide1615,80020-41-3,furyloxyfen,FALSE
Pesticide1616,80060-09-9,diafenthiuron,FALSE
Pesticide1617,80228-93-9,thiadifluor,FALSE
Pesticide1618,80510-15-2,dominicalure,FALSE
Pesticide1619,80510-16-3,dominicalure,FALSE
Pesticide1620,80544-75-8,ciobutide,FALSE
Pesticide1621,80844-07-1,etofenprox,FALSE
Pesticide1622,81051-65-2,karetazan,FALSE
Pesticide1623,81052-29-1,karetazan-potassium,FALSE
Pesticide1624,81334-34-1,imazapyr,FALSE
Pesticide1625,81335-37-7,imazaquin,FALSE
Pesticide1626,81335-43-5,imazaquin-methyl,FALSE
Pesticide1627,81335-46-8,imazaquin-sodium,FALSE
Pesticide1628,81335-47-9,imazaquin-ammonium,FALSE
Pesticide1629,81335-77-5,imazethapyr,FALSE
Pesticide1630,81405-85-8,imazamethabenz-methyl,FALSE
Pesticide1631,81406-37-3,fluroxypyr-meptyl,FALSE
Pesticide1632,81412-43-3,tridemorph,FALSE
Pesticide1633,81416-44-6,difenopenten,FALSE
Pesticide1634,81510-83-0,imazapyr-isopropylammonium,FALSE
Pesticide1635,81591-81-3,glyphosate-trimesium,FALSE
Pesticide1636,81613-59-4,flupropadine,FALSE
Pesticide1637,81777-89-1,clomazone,FALSE
Pesticide1638,81777-95-9,bixlozone,FALSE
Pesticide1639,82097-50-5,triasulfuron,FALSE
Pesticide1640,82211-24-3,inabenfide,FALSE
Pesticide1641,82558-50-7,isoxaben,FALSE
Pesticide1642,82560-54-1,benfuracarb,FALSE
Pesticide1643,82657-04-3,bifenthrin,FALSE
Pesticide1644,82683-78-1,picloram-trolamine,FALSE
Pesticide1645,82692-44-2,benzofenap,FALSE
Pesticide1646,82697-71-0,clofencet-potassium,FALSE
Pesticide1647,83055-99-6,bensulfuron-methyl,FALSE
Pesticide1648,83066-88-0,fluazifop-P,FALSE
Pesticide1649,83121-18-0,teflubenzuron,FALSE
Pesticide1650,83130-01-2,alanycarb,FALSE
Pesticide1651,83164-33-4,diflufenican,FALSE
Pesticide1652,83327-52-0,izopamfos,FALSE
Pesticide1653,83588-43-6,fenridazon-potassium,FALSE
Pesticide1654,83601-83-6,mefluidide-potassium,FALSE
Pesticide1655,83657-17-4,uniconazole-P,FALSE
Pesticide1656,83657-18-5,diniconazole-M,FALSE
Pesticide1657,83657-22-1,uniconazole,FALSE
Pesticide1658,83657-24-3,diniconazole,FALSE
Pesticide1659,83733-82-8,fosmethilan,FALSE
Pesticide1660,84087-01-4,quinclorac,FALSE
Pesticide1661,84087-33-2,quinclorac-methyl,FALSE
Pesticide1662,84087-48-9,quinclorac-dimethylammonium,FALSE
Pesticide1663,84332-86-5,chlozolinate,FALSE
Pesticide1664,84466-05-7,amidoflumet,FALSE
Pesticide1665,84478-52-4,flumipropyn,FALSE
Pesticide1666,84496-56-0,clomeprop,FALSE
Pesticide1667,84527-51-5,zarilamid,FALSE
Pesticide1668,84937-88-2,tetramethylfluthrin,FALSE
Pesticide1669,85509-19-9,flusilazole,FALSE
Pesticide1670,85785-20-2,esprocarb,FALSE
Pesticide1671,86209-51-0,primisulfuron-methyl,FALSE
Pesticide1672,86479-06-3,hexaflumuron,FALSE
Pesticide1673,86598-92-7,imibenconazole,FALSE
Pesticide1674,86763-47-5,propisochlor,FALSE
Pesticide1675,86811-58-7,fluazuron,FALSE
Pesticide1676,87130-20-9,diethofencarb,FALSE
Pesticide1677,87237-48-7,haloxyfop-etotyl,FALSE
Pesticide1678,87310-56-3,butenachlor,FALSE
Pesticide1679,87392-12-9,S-metolachlor,FALSE
Pesticide1680,87546-18-7,flumiclorac-pentyl,FALSE
Pesticide1681,87547-04-4,flumiclorac,FALSE
Pesticide1682,87674-68-8,dimethenamid,FALSE
Pesticide1683,87757-18-4,isoxapyrifop,FALSE
Pesticide1684,87818-31-3,cinmethylin,FALSE
Pesticide1685,87820-88-0,tralkoxydim,FALSE
Pesticide1686,88107-27-1,benzamacril-isobutyl,FALSE
Pesticide1687,88283-41-4,pyrifenox,FALSE
Pesticide1688,88349-88-6,cloquintocet,FALSE
Pesticide1689,88485-37-4,fluxofenim,FALSE
Pesticide1690,88671-89-0,myclobutanil,FALSE
Pesticide1691,88678-67-5,pyributicarb,FALSE
Pesticide1692,88805-35-0,prohexadione,FALSE
Pesticide1693,89269-64-7,ferimzone,FALSE
Pesticide1694,89583-90-4,benclothiaz,FALSE
Pesticide1695,89784-60-1,pyraclofos,FALSE
Pesticide1696,90035-08-8,flocoumafen,FALSE
Pesticide1697,90134-59-1,flamprop-M,FALSE
Pesticide1698,90338-20-8,butathiofos,FALSE
Pesticide1699,90717-03-6,quinmerac,FALSE
Pesticide1700,90982-32-4,chlorimuron-ethyl,FALSE
Pesticide1701,91315-15-0,aldimorph,FALSE
Pesticide1702,91465-08-6,lambda-cyhalothrin,FALSE
Pesticide1703,93697-74-6,pyrazosulfuron-ethyl,FALSE
Pesticide1704,94051-08-8,quizalofop-P,FALSE
Pesticide1705,94125-34-5,prosulfuron,FALSE
Pesticide1706,94361-06-5,cyproconazole,FALSE
Pesticide1707,94593-79-0,oxabetrinil,FALSE
Pesticide1708,94593-91-6,cinosulfuron,FALSE
Pesticide1709,95266-40-3,trinexapac-ethyl,FALSE
Pesticide1710,95465-99-9,cadusafos,FALSE
Pesticide1711,95480-33-4,cloproxydim,FALSE
Pesticide1712,95617-09-7,fenoxaprop,FALSE
Pesticide1713,95737-68-1,pyriproxyfen,FALSE
Pesticide1714,95977-29-0,haloxyfop-P,FALSE
Pesticide1715,96182-53-5,tebupirimfos,FALSE
Pesticide1716,96420-72-3,jiecaowan,FALSE
Pesticide1717,96489-71-3,pyridaben,FALSE
Pesticide1718,96491-05-3,thenylchlor,FALSE
Pesticide1719,96525-23-4,flurtamone,FALSE
Pesticide1720,96645-86-2,trunc-call,TRUE
Pesticide1721,97454-00-7,jiecaoxi,FALSE
Pesticide1722,97780-06-8,ethametsulfuron-methyl,FALSE
Pesticide1723,97886-45-8,dithiopyr,FALSE
Pesticide1724,98243-83-5,benalaxyl-M,FALSE
Pesticide1725,98389-04-9,pyrazosulfuron,FALSE
Pesticide1726,98565-18-5,huangcaoling,FALSE
Pesticide1727,98730-04-2,benoxacor,FALSE
Pesticide1728,98886-44-3,fosthiazate,FALSE
Pesticide1729,98967-40-9,flumetsulam,FALSE
Pesticide1730,98968-92-4,thiosultap,FALSE
Pesticide1731,99105-77-8,sulcotrione,FALSE
Pesticide1732,99129-21-2,clethodim,FALSE
Pesticide1733,99283-00-8,chlorimuron,FALSE
Pesticide1734,99283-01-9,bensulfuron,FALSE
Pesticide1735,99387-89-0,triflumizole,FALSE
Pesticide1736,99485-76-4,cumyluron,FALSE
Pesticide1737,99607-70-2,cloquintocet-mexyl,FALSE
Pesticide1738,99662-11-0,nipyraclofen,FALSE
Pesticide1739,99675-03-3,isofenphos-methyl,FALSE
Pesticide1740,100646-51-3,quizalofop-P-ethyl,FALSE
Pesticide1741,100728-84-5,imazamethabenz,FALSE
Pesticide1742,100784-20-1,halosulfuron-methyl,FALSE
Pesticide1743,101007-06-1,acrinathrin,FALSE
Pesticide1744,101012-85-5,mecoprop-P-isobutyl,FALSE
Pesticide1745,101200-48-0,tribenuron-methyl,FALSE
Pesticide1746,101205-02-1,cycloxydim,FALSE
Pesticide1747,101463-69-8,flufenoxuron,FALSE
Pesticide1748,101903-30-4,pefurazoate,FALSE
Pesticide1749,101917-66-2,imazethapyr-ammonium,FALSE
Pesticide1750,102851-06-9,tau-fluvalinate,FALSE
Pesticide1751,103055-07-8,lufenuron,FALSE
Pesticide1752,103055-25-0,funaihecaoling,FALSE
Pesticide1753,103112-35-2,fenchlorazole-ethyl,FALSE
Pesticide1754,103112-36-3,fenchlorazole,FALSE
Pesticide1755,103361-09-7,flumioxazin,FALSE
Pesticide1756,103427-73-2,fucaojing,FALSE
Pesticide1757,103782-08-7,allosamidin,FALSE
Pesticide1758,103970-75-8,quinconazole,FALSE
Pesticide1759,104030-54-8,carpropamid,FALSE
Pesticide1760,104040-78-0,flazasulfuron,FALSE
Pesticide1761,104040-79-1,dicamba-diglycolamine,FALSE
Pesticide1762,104078-12-8,dinocton,FALSE
Pesticide1763,104098-48-8,imazapic,FALSE
Pesticide1764,104098-49-9,imazapic-ammonium,FALSE
Pesticide1765,104206-82-8,mesotrione,FALSE
Pesticide1766,104273-73-6,trinexapac,FALSE
Pesticide1767,104459-82-7,fucaomi,FALSE
Pesticide1768,104653-34-1,difethialone,FALSE
Pesticide1769,104770-29-8,zuomihuanglong,FALSE
Pesticide1770,104786-87-0,dichlorprop-P-dimethylammonium,FALSE
Pesticide1771,105024-66-6,silafluofen,FALSE
Pesticide1772,105084-66-0,phosglycin,FALSE
Pesticide1773,105512-06-9,clodinafop-propargyl,FALSE
Pesticide1774,105726-67-8,methylneodecanamide,FALSE
Pesticide1775,105779-78-0,pyrimidifen,FALSE
Pesticide1776,105843-36-5,imidaclothiz,FALSE
Pesticide1777,106040-48-6,tribenuron,FALSE
Pesticide1778,106325-08-0,epoxiconazole,FALSE
Pesticide1779,106700-29-2,pethoxamid,FALSE
Pesticide1780,106917-52-6,flusulfamide,FALSE
Pesticide1781,107360-34-9,dayoutong,FALSE
Pesticide1782,107534-96-3,tebuconazole,FALSE
Pesticide1783,107713-58-6,flufenprox,FALSE
Pesticide1784,108173-90-6,guazatine,FALSE
Pesticide1785,108731-70-0,fomesafen-sodium,FALSE
Pesticide1786,109293-98-3,diflufenzopyr-sodium,FALSE
Pesticide1787,110235-47-7,mepanipyrim,FALSE
Pesticide1788,110488-70-5,dimethomorph,FALSE
Pesticide1789,110956-75-7,pentoxazone,FALSE
Pesticide1790,111353-84-5,ethametsulfuron,FALSE
Pesticide1791,111479-05-1,propaquizafop,FALSE
Pesticide1792,111578-32-6,metobenzuron,FALSE
Pesticide1793,111872-58-3,halfenprox,FALSE
Pesticide1794,111988-49-9,thiacloprid,FALSE
Pesticide1795,111991-09-4,nicosulfuron,FALSE
Pesticide1796,112143-82-5,triazamate,FALSE
Pesticide1797,112225-87-3,yishijing,FALSE
Pesticide1798,112226-61-6,halofenozide,FALSE
Pesticide1799,112281-77-3,tetraconazole,FALSE
Pesticide1800,112410-23-8,tebufenozide,FALSE
Pesticide1801,112636-83-6,dicyclanil,FALSE
Pesticide1802,112839-32-4,furconazole-cis,FALSE
Pesticide1803,112839-33-5,furconazole,FALSE
Pesticide1804,113036-87-6,primisulfuron,FALSE
Pesticide1805,113036-88-7,flucycloxuron,FALSE
Pesticide1806,113136-77-9,cyclanilide,FALSE
Pesticide1807,113158-40-0,fenoxaprop-P,FALSE
Pesticide1808,113507-06-5,moxidectin,FALSE
Pesticide1809,113614-08-7,beflubutamid,FALSE
Pesticide1810,113614-09-8,beflubutamid-M,FALSE
Pesticide1811,113963-87-4,dichlorprop-P-potassium,FALSE
Pesticide1812,114067-78-6,polythialan,FALSE
Pesticide1813,114311-32-9,imazamox,FALSE
Pesticide1814,114369-43-6,fenbuconazole,FALSE
Pesticide1815,114420-56-3,clodinafop,FALSE
Pesticide1816,114874-05-4,zuomihuanglong,TRUE
Pesticide1817,115044-19-4,guazatine acetates,FALSE
Pesticide1818,115136-53-3,imazapic-ammonium,FALSE
Pesticide1819,115852-48-7,fenoxanil,FALSE
Pesticide1820,116170-30-0,thicyofen,FALSE
Pesticide1821,116255-48-2,bromuconazole,FALSE
Pesticide1822,116714-46-6,novaluron,FALSE
Pesticide1823,117337-19-6,fluthiacet-methyl,FALSE
Pesticide1824,117428-22-5,picoxystrobin,FALSE
Pesticide1825,117704-25-3,doramectin,FALSE
Pesticide1826,117718-60-2,thiazopyr,FALSE
Pesticide1827,118134-30-8,spiroxamine,FALSE
Pesticide1828,118712-89-3,transfluthrin,FALSE
Pesticide1829,119126-15-7,flupoxam,FALSE
Pesticide1830,119168-77-3,tebufenpyrad,FALSE
Pesticide1831,119299-10-4,dichlorprop-P-sodium,FALSE
Pesticide1832,119446-68-3,difenoconazole,FALSE
Pesticide1833,119515-38-7,icaridin,FALSE
Pesticide1834,119544-94-4,protrifenbute,FALSE
Pesticide1835,119791-41-2,emamectin,FALSE
Pesticide1836,120068-37-3,fipronil,FALSE
Pesticide1837,120116-88-3,cyazofamid,FALSE
Pesticide1838,120162-55-2,azimsulfuron,FALSE
Pesticide1839,120890-70-2,flupropacil,FALSE
Pesticide1840,120923-37-7,amidosulfuron,FALSE
Pesticide1841,120928-09-8,fenazaquin,FALSE
Pesticide1842,121034-85-3,cymiazole hydrochloride,FALSE
Pesticide1843,121451-02-3,noviflumuron,FALSE
Pesticide1844,121552-61-2,cyprodinil,FALSE
Pesticide1845,121776-33-8,furilazole,FALSE
Pesticide1846,122008-78-0,cyhalofop,FALSE
Pesticide1847,122008-85-9,cyhalofop-butyl,FALSE
Pesticide1848,122453-73-0,chlorfenapyr,FALSE
Pesticide1849,122454-29-9,tralopyril,FALSE
Pesticide1850,122548-33-8,imazosulfuron,FALSE
Pesticide1851,122836-35-5,sulfentrazone,FALSE
Pesticide1852,122931-48-0,rimsulfuron,FALSE
Pesticide1853,123245-79-4,trunc-call,TRUE
Pesticide1854,123249-43-4,thidiazimin,FALSE
Pesticide1855,123312-89-0,pymetrozine,FALSE
Pesticide1856,123342-93-8,pyrithiobac,FALSE
Pesticide1857,123343-16-8,pyrithiobac-sodium,FALSE
Pesticide1858,123572-88-3,furametpyr,FALSE
Pesticide1859,123997-26-2,eprinomectin,FALSE
Pesticide1860,123997-28-4,emamectin,FALSE
Pesticide1861,124495-18-7,quinoxyfen,FALSE
Pesticide1862,125116-23-6,metconazole,FALSE
Pesticide1863,125225-28-7,ipconazole,FALSE
Pesticide1864,125306-83-4,cafenstrole,FALSE
Pesticide1865,125401-75-4,bispyribac,FALSE
Pesticide1866,125401-92-5,bispyribac-sodium,FALSE
Pesticide1867,126069-54-3,phosphocarb,FALSE
Pesticide1868,126448-41-7,acibenzolar,FALSE
Pesticide1869,126535-15-7,triflusulfuron-methyl,FALSE
Pesticide1870,126801-58-9,ethoxysulfuron,FALSE
Pesticide1871,126833-17-8,fenhexamid,FALSE
Pesticide1872,127087-86-9,benzamacril,FALSE
Pesticide1873,127277-53-6,prohexadione-calcium,FALSE
Pesticide1874,128621-72-7,carfentrazone,FALSE
Pesticide1875,128639-02-1,carfentrazone-ethyl,FALSE
Pesticide1876,129025-54-3,clofencet,FALSE
Pesticide1877,129531-12-0,metcamifen,FALSE
Pesticide1878,129558-76-5,tolfenpyrad,FALSE
Pesticide1879,129586-32-9,huanjunzuo,FALSE
Pesticide1880,129630-17-7,pyraflufen,FALSE
Pesticide1881,129630-19-9,pyraflufen-ethyl,FALSE
Pesticide1882,129909-90-6,amicarbazone,FALSE
Pesticide1883,130000-40-7,thifluzamide,FALSE
Pesticide1884,130339-07-0,diflumetorim,FALSE
Pesticide1885,130561-48-7,sintofen,FALSE
Pesticide1886,131086-42-5,ethoxyfen-ethyl,FALSE
Pesticide1887,131341-86-1,fludioxonil,FALSE
Pesticide1888,131475-57-5,triaziflam,FALSE
Pesticide1889,131807-57-3,famoxadone,FALSE
Pesticide1890,131860-33-8,azoxystrobin,FALSE
Pesticide1891,131929-60-7,spinosad,FALSE
Pesticide1892,131929-63-0,spinosad,FALSE
Pesticide1893,131983-72-7,triticonazole,FALSE
Pesticide1894,132057-06-8,cinidon-ethyl,FALSE
Pesticide1895,133220-30-1,indanofan,FALSE
Pesticide1896,133305-88-1,eprinomectin,TRUE
Pesticide1897,133305-89-2,eprinomectin,TRUE
Pesticide1898,133408-50-1,metominostrobin,FALSE
Pesticide1899,133855-98-8,epoxiconazole,FALSE
Pesticide1900,134074-64-9,oxpoconazole,FALSE
Pesticide1901,134098-61-6,fenpyroximate,FALSE
Pesticide1902,134605-64-4,butafenacil,FALSE
Pesticide1903,135158-54-2,acibenzolar-S-methyl,FALSE
Pesticide1904,135186-78-6,pyriftalid,FALSE
Pesticide1905,135397-30-7,halosulfuron,FALSE
Pesticide1906,135410-20-7,acetamiprid,FALSE
Pesticide1907,135590-91-9,mefenpyr-diethyl,FALSE
Pesticide1908,135591-00-3,mefenpyr,FALSE
Pesticide1909,135990-29-3,triflusulfuron,FALSE
Pesticide1910,136191-56-5,pyriminobac,FALSE
Pesticide1911,136191-64-5,pyriminobac-methyl,FALSE
Pesticide1912,136426-54-5,fluquinconazole,FALSE
Pesticide1913,136849-15-5,cyclosulfamuron,FALSE
Pesticide1914,137335-79-6,emamectin,FALSE
Pesticide1915,137512-74-4,emamectin benzoate,FALSE
Pesticide1916,137641-05-5,picolinafen,FALSE
Pesticide1917,138164-12-2,butroxydim,FALSE
Pesticide1918,138261-41-3,imidacloprid,FALSE
Pesticide1919,139001-49-3,profoxydim,FALSE
Pesticide1920,139528-85-1,metosulam,FALSE
Pesticide1921,139920-32-4,diclocymet,FALSE
Pesticide1922,139968-49-3,metaflumizone,FALSE
Pesticide1923,140163-89-9,imicyafos,FALSE
Pesticide1924,140923-17-7,iprovalicarb,FALSE
Pesticide1925,141112-06-3,isoxachlortole,FALSE
Pesticide1926,141112-29-0,isoxaflutole,FALSE
Pesticide1927,141517-21-7,trifloxystrobin,FALSE
Pesticide1928,141776-32-1,sulfosulfuron,FALSE
Pesticide1929,142459-58-3,flufenacet,FALSE
Pesticide1930,142469-14-5,tritosulfuron,FALSE
Pesticide1931,142891-20-1,cinidon-ethyl,FALSE
Pesticide1932,143390-89-0,kresoxim-methyl,FALSE
Pesticide1933,143807-66-3,chromafenozide,FALSE
Pesticide1934,144550-06-1,iodosulfuron-methyl,FALSE
Pesticide1935,144550-36-7,iodosulfuron-methyl-sodium,FALSE
Pesticide1936,144651-06-9,oxasulfuron,FALSE
Pesticide1937,144740-53-4,flupyrsulfuron-methyl,FALSE
Pesticide1938,144740-54-5,flupyrsulfuron-methyl-sodium,FALSE
Pesticide1939,145026-81-9,propoxycarbazone,FALSE
Pesticide1940,145026-88-6,flucarbazone,FALSE
Pesticide1941,145099-21-4,trifloxysulfuron,FALSE
Pesticide1942,145701-21-9,diclosulam,FALSE
Pesticide1943,145701-23-1,florasulam,FALSE
Pesticide1944,145767-97-1,vaniliprole,FALSE
Pesticide1945,146659-78-1,polyoxorim-zinc,FALSE
Pesticide1946,147150-35-4,cloransulam-methyl,FALSE
Pesticide1947,148477-71-8,spirodiclofen,FALSE
Pesticide1948,149253-65-6,fluthiacet,FALSE
Pesticide1949,149508-90-7,simeconazole,FALSE
Pesticide1950,149877-41-8,bifenazate,FALSE
Pesticide1951,149961-52-4,dimoxystrobin,FALSE
Pesticide1952,149979-41-9,tepraloxydim,FALSE
Pesticide1953,150114-71-9,aminopyralid,FALSE
Pesticide1954,150315-10-9,flupyrsulfuron,FALSE
Pesticide1955,150824-47-8,nitenpyram,FALSE
Pesticide1956,153197-14-9,oxaziclomefone,FALSE
Pesticide1957,153233-91-1,etoxazole,FALSE
Pesticide1958,153719-23-4,thiamethoxam,FALSE
Pesticide1959,154025-04-4,flumetover,FALSE
Pesticide1960,154486-27-8,fluroxypyr-butometyl,FALSE
Pesticide1961,155569-91-8,emamectin benzoate,FALSE
Pesticide1962,156052-68-5,zoxamide,FALSE
Pesticide1963,156410-09-2,ningnanmycin,FALSE
Pesticide1964,156963-66-5,benzobicyclon,FALSE
Pesticide1965,158062-67-0,flonicamid,FALSE
Pesticide1966,158237-07-1,fentrazamide,FALSE
Pesticide1967,158353-15-2,pyraclonil,FALSE
Pesticide1968,158474-72-7,prohydrojasmon,FALSE
Pesticide1969,158755-95-4,benzfendizone,FALSE
Pesticide1970,159518-97-5,cloransulam,FALSE
Pesticide1971,160016-46-6,ceralure,FALSE
Pesticide1972,160791-64-0,brofluthrinate,FALSE
Pesticide1973,161050-58-4,methoxyfenozide,FALSE
Pesticide1974,161326-34-7,fenamidone,FALSE
Pesticide1975,162320-67-4,diflovidazin,FALSE
Pesticide1976,162650-77-3,ethaboxam,FALSE
Pesticide1977,162922-31-8,epocholeone,FALSE
Pesticide1978,163269-30-5,bethoxazin,FALSE
Pesticide1979,163515-14-8,dimethenamid-P,FALSE
Pesticide1980,163520-33-0,isoxadifen-ethyl,FALSE
Pesticide1981,165108-07-6,selamectin,FALSE
Pesticide1982,165252-70-0,dinotefuran,FALSE
Pesticide1983,168088-61-7,pyribenzoxim,FALSE
Pesticide1984,168316-95-8,spinosad,FALSE
Pesticide1985,169202-06-6,iminoctadine trialbesilate,FALSE
Pesticide1986,170015-32-4,flufenerim,FALSE
Pesticide1987,171249-05-1,lepimectin,TRUE
Pesticide1988,171249-10-8,lepimectin,TRUE
Pesticide1989,172351-12-1,bachmedesh,FALSE
Pesticide1990,173159-57-4,foramsulfuron,FALSE
Pesticide1991,173390-74-4,thiosultap-diammonium,FALSE
Pesticide1992,173584-44-6,indoxacarb,FALSE
Pesticide1993,173662-97-0,mandestrobin,FALSE
Pesticide1994,173980-17-1,bencarbazone,FALSE
Pesticide1995,174212-12-5,oxpoconazole fumarate,FALSE
Pesticide1996,174514-07-9,fluazolate,FALSE
Pesticide1997,175013-18-0,pyraclostrobin,FALSE
Pesticide1998,175217-20-6,silthiofam,FALSE
Pesticide1999,177406-68-7,benthiavalicarb-isopropyl,FALSE
Pesticide2000,178928-70-6,prothioconazole,FALSE
Pesticide2001,179101-81-6,pyridalyl,FALSE
Pesticide2002,179607-18-2,emamectin benzoate,FALSE
Pesticide2003,180409-60-3,cyflufenamid,FALSE
Pesticide2004,181274-15-7,propoxycarbazone-sodium,FALSE
Pesticide2005,181274-17-9,flucarbazone-sodium,FALSE
Pesticide2006,181587-01-9,ethiprole,FALSE
Pesticide2007,187166-15-0,spinetoram,TRUE
Pesticide2008,187166-40-1,spinetoram,TRUE
Pesticide2009,183675-82-3,penthiopyrad,FALSE
Pesticide2010,185119-76-0,iodosulfuron,FALSE
Pesticide2011,188425-85-6,boscalid,FALSE
Pesticide2012,188489-07-8,flufenpyr-ethyl,FALSE
Pesticide2013,188490-07-5,flufenpyr,FALSE
Pesticide2014,188634-90-4,ethoxyfen,FALSE
Pesticide2015,189278-12-4,proquinazid,FALSE
Pesticide2016,189517-75-7,shuangjiaancaolin,FALSE
Pesticide2017,190314-43-3,profluazol,FALSE
Pesticide2018,192708-91-1,ketospiradox-potassium,FALSE
Pesticide2019,193740-76-0,fluoxastrobin,FALSE
Pesticide2020,199119-58-9,trifloxysulfuron-sodium,FALSE
Pesticide2021,200509-41-7,quizalofop-P-tefuryl,FALSE
Pesticide2022,201593-84-2,bistrifluron,FALSE
Pesticide2023,203313-25-1,spirotetramat,FALSE
Pesticide2024,205510-53-8,clothianidin,FALSE
Pesticide2025,208465-21-8,mesosulfuron-methyl,FALSE
Pesticide2026,209861-58-5,acetoprole,FALSE
Pesticide2027,209866-92-2,isoxadifen,FALSE
Pesticide2028,210631-68-8,topramezone,FALSE
Pesticide2029,210880-92-5,clothianidin,FALSE
Pesticide2030,211867-47-9,flumorph,FALSE
Pesticide2031,212201-70-2,ipfencarbazone,FALSE
Pesticide2032,213464-77-8,orthosulfamuron,FALSE
Pesticide2033,215655-76-8,clacyfos,FALSE
Pesticide2034,219714-96-2,penoxsulam,FALSE
Pesticide2035,220899-03-6,metrafenone,FALSE
Pesticide2036,221205-90-9,pyrimisulfan,FALSE
Pesticide2037,221667-31-8,cyprosulfamide,FALSE
Pesticide2038,223419-20-3,profluthrin,FALSE
Pesticide2039,223580-51-6,tiadinil,FALSE
Pesticide2040,224049-04-1,isotianil,FALSE
Pesticide2041,229977-93-9,fluacrypyrim,FALSE
Pesticide2042,238410-11-2,enoxastrobin,FALSE
Pesticide2043,239110-15-7,fluopicolide,FALSE
Pesticide2044,240494-70-6,metofluthrin,FALSE
Pesticide2045,240494-71-7,epsilon-metofluthrin,FALSE
Pesticide2046,243973-20-8,pinoxaden,FALSE
Pesticide2047,245735-90-4,mepiquat pentaborate,FALSE
Pesticide2048,247057-22-3,imazamox-ammonium,FALSE
Pesticide2049,248593-16-0,orysastrobin,FALSE
Pesticide2050,250346-55-5,chloroprallethrin,FALSE
Pesticide2051,256412-89-2,metamifop,FALSE
Pesticide2052,260359-57-7,bioallethrin,FALSE
Pesticide2053,271241-14-6,dimefluthrin,FALSE
Pesticide2054,272451-65-7,flubendiamide,FALSE
Pesticide2055,283159-90-0,valifenalate,FALSE
Pesticide2056,283594-90-1,spiromesifen,FALSE
Pesticide2057,291771-83-0,pyrisoxazole,TRUE
Pesticide2058,291771-99-8,pyrisoxazole,TRUE
Pesticide2059,315208-17-4,pyrafluprole,FALSE
Pesticide2060,317815-83-1,thiencarbazone-methyl,FALSE
Pesticide2061,318290-98-1,fluensulfone,FALSE
Pesticide2062,330459-31-9,tioxazafen,FALSE
Pesticide2063,335104-84-2,tembotrione,FALSE
Pesticide2064,337458-27-2,pyrifluquinazon,FALSE
Pesticide2065,348635-87-0,amisulbrom,FALSE
Pesticide2066,352010-68-5,bicyclopyrone,FALSE
Pesticide2067,352271-52-4,renofluthrin,FALSE
Pesticide2068,355831-86-6,thiosultap-diammonium,FALSE
Pesticide2069,361377-29-9,fluoxastrobin,FALSE
Pesticide2070,365400-11-9,pyrasulfotole,FALSE
Pesticide2071,366815-39-6,fenaminstrobin,FALSE
Pesticide2072,372137-35-4,saflufenacil,FALSE
Pesticide2073,374726-62-2,mandipropamid,FALSE
Pesticide2074,376645-78-2,tebufloquin,FALSE
Pesticide2075,380221-54-5,acypetacs-zinc,FALSE
Pesticide2076,391634-71-2,kappa-tefluthrin,FALSE
Pesticide2077,394730-71-3,pyriprole,FALSE
Pesticide2078,400852-66-6,mesosulfuron,FALSE
Pesticide2079,400882-07-7,cyflumetofen,FALSE
Pesticide2080,403640-27-7,methiozolin,FALSE
Pesticide2081,412928-75-7,flucetosulfuron,FALSE
Pesticide2082,413615-35-7,benthiavalicarb,FALSE
Pesticide2083,420138-40-5,pyribambenz-propyl,FALSE
Pesticide2084,420138-41-6,pyribambenz-isopropyl,FALSE
Pesticide2085,422556-08-9,pyroxsulam,FALSE
Pesticide2086,439680-76-9,kappa-bifenthrin,FALSE
Pesticide2087,447399-55-5,pyroxasulfone,FALSE
Pesticide2088,473278-76-1,tefuryltrione,FALSE
Pesticide2089,473798-59-3,fenpyrazamine,FALSE
Pesticide2090,494793-67-8,penflufen,FALSE
Pesticide2091,499231-24-2,cyclopyrimorate,FALSE
Pesticide2092,500008-45-7,chlorantraniliprole,FALSE
Pesticide2093,500207-04-5,picarbutrazox,FALSE
Pesticide2094,517875-34-2,fenpicoxamid,FALSE
Pesticide2095,560121-52-0,cyenopyrafen,FALSE
Pesticide2096,566191-87-5,aminopyralid-potassium,FALSE
Pesticide2097,566191-89-7,aminopyralid-tripromine,FALSE
Pesticide2098,570415-88-2,propyrisulfuron,FALSE
Pesticide2099,581809-46-3,bixafen,FALSE
Pesticide2100,599194-51-1,sedaxane,TRUE
Pesticide2101,599197-38-3,sedaxane,TRUE
Pesticide2102,609346-29-4,momfluorothrin,FALSE
Pesticide2103,639826-16-7,fenoxasulfone,FALSE
Pesticide2104,658066-35-4,fluopyram,FALSE
Pesticide2105,688046-61-9,pyriofenone,FALSE
Pesticide2106,704886-18-0,flufiprole,FALSE
Pesticide2107,730979-19-8,indaziflam,TRUE
Pesticide2108,730979-32-5,indaziflam,TRUE
Pesticide2109,736994-63-1,cyantraniliprole,FALSE
Pesticide2110,799247-52-2,pyribencarb,FALSE
Pesticide2111,850881-30-0,jiaxiangjunzhi,FALSE
Pesticide2112,850881-70-8,coumoxystrobin,FALSE
Pesticide2113,858954-83-3,aminocyclopyrachlor-methyl,FALSE
Pesticide2114,858956-08-8,aminocyclopyrachlor,FALSE
Pesticide2115,858956-35-1,aminocyclopyrachlor-potassium,FALSE
Pesticide2116,861229-15-4,mecoprop-P-etexyl,FALSE
Pesticide2117,861647-84-9,quinofumelin,FALSE
Pesticide2118,862588-11-2,pyraoxystrobin,FALSE
Pesticide2119,863549-51-3,lepimectin,FALSE
Pesticide2120,864731-61-3,fluralaner,FALSE
Pesticide2121,865318-97-4,ametoctradin,FALSE
Pesticide2122,865363-39-9,dichlorprop-P-etexyl,FALSE
Pesticide2123,868680-84-6,metazosulfuron,FALSE
Pesticide2124,870721-81-6,heptamaloxyloglucan,FALSE
Pesticide2125,874195-61-6,triafamone,FALSE
Pesticide2126,874967-67-6,sedaxane,FALSE
Pesticide2127,875775-74-9,flometoquin,FALSE
Pesticide2128,875915-78-9,isofetamid,FALSE
Pesticide2129,881685-58-1,isopyrazam,FALSE
Pesticide2130,902760-40-1,triclopyricarb,FALSE
Pesticide2131,907204-31-3,fluxapyroxad,FALSE
Pesticide2132,911499-62-2,tolprocarb,FALSE
Pesticide2133,915101-98-3,flucythrinate,FALSE
Pesticide2134,915288-13-0,meperfluthrin,FALSE
Pesticide2135,915410-70-7,pyrametostrobin,FALSE
Pesticide2136,915972-17-7,afidopyropen,FALSE
Pesticide2137,918162-02-4,flufenoxystrobin,FALSE
Pesticide2138,926914-55-8,pyflubumide,FALSE
Pesticide2139,928783-29-3,fluxametamide,FALSE
Pesticide2140,936331-72-5,thiencarbazone,FALSE
Pesticide2141,942515-63-1,pyraziflumid,FALSE
Pesticide2142,943831-98-9,halauxifen-methyl,FALSE
Pesticide2143,943832-60-8,halauxifen,FALSE
Pesticide2144,943832-81-3,florpyrauxifen,FALSE
Pesticide2145,946578-00-3,sulfoxaflor,FALSE
Pesticide2146,948994-16-9,paichongding,FALSE
Pesticide2147,950782-86-2,indaziflam,FALSE
Pesticide2148,951659-40-8,flupyradifurone,FALSE
Pesticide2149,953030-84-7,buprofezin,FALSE
Pesticide2150,957144-77-3,dichlobentiazox,FALSE
Pesticide2151,958647-10-4,flutianil,FALSE
Pesticide2152,1003318-67-9,oxathiapiprolin,FALSE
Pesticide2153,1031756-98-5,cyclaniliprole,FALSE
Pesticide2154,1048373-72-3,"2,4-D-choline",FALSE
Pesticide2155,1048373-85-8,triclopyr-choline,FALSE
Pesticide2156,1065124-65-3,epsilon-momfluorothrin,FALSE
Pesticide2157,1072957-71-1,benzovindiflupyr,FALSE
Pesticide2158,1093861-60-9,afoxolaner,FALSE
Pesticide2159,1096483-37-2,clopyralid-dimethylammonium,FALSE
Pesticide2160,1097630-26-6,fluhexafon,FALSE
Pesticide2161,1099049-62-3,oxabetrinil,FALSE
Pesticide2162,1101132-67-5,tolpyralate,FALSE
Pesticide2163,1104384-14-6,tetrachlorantraniliprole,FALSE
Pesticide2164,1130296-65-9,heptafluthrin,FALSE
Pesticide2165,1144097-22-2,iofensulfuron,FALSE
Pesticide2166,1144097-30-2,iofensulfuron-sodium,FALSE
Pesticide2167,1203791-41-6,cycloxaprid,FALSE
Pesticide2168,1207727-04-5,broflanilide,FALSE
Pesticide2169,1220411-29-9,tiafenacil,FALSE
Pesticide2170,1228284-64-7,pydiflumetofen,FALSE
Pesticide2171,1229023-00-0,spiropidion,FALSE
Pesticide2172,1229654-66-3,tetraniliprole,FALSE
Pesticide2173,1254304-22-7,fluazaindolizine,FALSE
Pesticide2174,1255734-28-1,isoflucypram,FALSE
Pesticide2175,1257598-43-8,pyriminostrobin,FALSE
Pesticide2176,1258836-72-4,trifludimoxazin,FALSE
Pesticide2177,1262605-53-7,cyhalodiamide,FALSE
Pesticide2178,1263133-33-0,triflumezopyrim,FALSE
Pesticide2179,1263629-39-5,dicloromezotiaz,FALSE
Pesticide2180,1286239-22-2,dicamba-biproamine,FALSE
Pesticide2181,1309859-39-9,fluopimomide,FALSE
Pesticide2182,1309959-62-3,isocycloseram,TRUE
Pesticide2183,1314008-27-9,ipflufenoquin,FALSE
Pesticide2184,1315501-18-8,zeta-cypermethrin,FALSE
Pesticide2185,1332838-17-1,acynonapyr,FALSE
Pesticide2186,1342891-70-6,fenquinotrione,FALSE
Pesticide2187,1352994-67-2,inpyrfluxam,FALSE
Pesticide2188,1358061-55-8,pyridachlometyl,FALSE
Pesticide2189,1360819-11-9,fluoxapiprolin,FALSE
Pesticide2190,1369852-71-0,lotilaner,FALSE
Pesticide2191,1373256-33-7,pronitridine,FALSE
Pesticide2192,1383809-87-7,fluindapyr,FALSE
Pesticide2193,1390661-72-9,florpyrauxifen-benzyl,FALSE
Pesticide2194,1398609-39-6,sarolaner,FALSE
Pesticide2195,1403615-77-9,dimpropyridaz,FALSE
Pesticide2196,1417782-03-6,mefentrifluconazole,FALSE
Pesticide2197,1417782-08-1,ipfentrifluconazole,FALSE
Pesticide2198,1449021-97-9,benzpyrimoxan,FALSE
Pesticide2199,1472649-01-6,metyltetraprole,FALSE
Pesticide2200,1477919-27-9,tyclopyrazoflor,FALSE
Pesticide2201,1486617-21-3,lancotrione,FALSE
Pesticide2202,1486617-22-4,lancotrione-sodium,FALSE
Pesticide2203,1531626-08-0,aminopyrifen,FALSE
Pesticide2204,1616678-32-0,oxazosulfyl,FALSE
Pesticide2205,1651191-47-7,cyclopyranil,FALSE
Pesticide2206,1689566-03-7,flupyrimin,FALSE
Pesticide2207,1803108-03-3,pyrapropoyne,FALSE
Pesticide2208,1820573-27-0,beta-cyfluthrin,FALSE
Pesticide2209,1957168-02-3,diflufenzopyr,FALSE
Pesticide2210,1961312-55-9,florylpicoxamid,FALSE
Pesticide2211,2053901-33-8,tetflupyrolimet,FALSE
Pesticide2212,2061933-85-3,isocycloseram,FALSE
