\relax 
\providecommand\hyper@newdestlabel[2]{}
\providecommand\HyperFirstAtBeginDocument{\AtBeginDocument}
\HyperFirstAtBeginDocument{\ifx\hyper@anchor\@undefined
\global\let\oldcontentsline\contentsline
\gdef\contentsline#1#2#3#4{\oldcontentsline{#1}{#2}{#3}}
\global\let\oldnewlabel\newlabel
\gdef\newlabel#1#2{\newlabelxx{#1}#2}
\gdef\newlabelxx#1#2#3#4#5#6{\oldnewlabel{#1}{{#2}{#3}}}
\AtEndDocument{\ifx\hyper@anchor\@undefined
\let\contentsline\oldcontentsline
\let\newlabel\oldnewlabel
\fi}
\fi}
\global\let\hyper@last\relax 
\gdef\HyperFirstAtBeginDocument#1{#1}
\providecommand\HyField@AuxAddToFields[1]{}
\providecommand\HyField@AuxAddToCoFields[2]{}
\providecommand \oddpage@label [2]{}
\newlabel{import-packages}{{}{1}{Import packages}{section*.1}{}}
\@writefile{toc}{\contentsline {paragraph}{Import packages}{1}{section*.1}}
\newlabel{read-data}{{}{1}{Read data}{section*.2}{}}
\@writefile{toc}{\contentsline {paragraph}{Read data}{1}{section*.2}}
\newlabel{use-data-associated-with-the-alpha-1a-adrenergic-receptor}{{}{1}{Use data associated with the Alpha-1a adrenergic receptor}{section*.3}{}}
\@writefile{toc}{\contentsline {subparagraph}{Use data associated with the Alpha-1a adrenergic receptor}{1}{section*.3}}
\newlabel{build-a-molecule-record-from-smiles-strings}{{}{1}{Build a molecule record from smiles strings}{section*.4}{}}
\@writefile{toc}{\contentsline {paragraph}{Build a molecule record from smiles strings}{1}{section*.4}}
\newlabel{calculate-fingerprints}{{}{1}{Calculate fingerprints}{section*.5}{}}
\@writefile{toc}{\contentsline {paragraph}{Calculate fingerprints}{1}{section*.5}}
\newlabel{build-and-populate-similarity-matrix}{{}{2}{Build and populate similarity matrix}{section*.6}{}}
\@writefile{toc}{\contentsline {paragraph}{Build and populate similarity matrix}{2}{section*.6}}
\newlabel{build-and-populate-an-adjacency-matrix}{{}{2}{Build and populate an adjacency matrix}{section*.7}{}}
\@writefile{toc}{\contentsline {paragraph}{Build and populate an adjacency matrix}{2}{section*.7}}
\newlabel{network-graph}{{}{2}{Network graph}{section*.8}{}}
\@writefile{toc}{\contentsline {paragraph}{Network graph}{2}{section*.8}}
\newlabel{build-a-network-graph}{{}{2}{Build a network graph}{section*.9}{}}
\@writefile{toc}{\contentsline {subparagraph}{Build a network graph}{2}{section*.9}}
\newlabel{draw-the-network-graph}{{}{2}{Draw the network graph}{section*.10}{}}
\@writefile{toc}{\contentsline {subparagraph}{Draw the network graph}{2}{section*.10}}
