
{
    "type":"object",
    "properties":{
        "string-input-1469:1456":{
            "type":"string",
            "default":"out_db",
            "description":"Enter a valid file name or URL. You can also choose a previously selected file from the drop-down list, or select a file from the \"Browse...\" dialog. The file format ending should be \".xls\" or \".xlsx\". If not checked, the default output name will be \"out_db.xlsx\".",
            "example":"out_db"
        },
        "column-selection-1469:1422":{
            "type":"object",
            "properties":{
                "column":{
                    "type":"string",
                    "default":"SMILES"
                }
            },
            "description":"Choose the column including SMILES from the drop-down menu.",
            "example":{
                "column":"SMILES"
            }
        },
        "column-selection-1469:1418":{
            "type":"object",
            "properties":{
                "column":{
                    "type":"string",
                    "default":"Molecule"
                }
            },
            "description":"Choose the column including numeric IDs from the drop-down menu.",
            "example":{
                "column":"Molecule"
            }
        }
    }
}